MEAN*.DAT,,,,,
x/H,y/H,N,U/Uc,V/Uc,W/Uc
2.44E-02,1.02E+00,189,3.05E-01,-4.24E-03,-1.87E-02
2.44E-02,1.04E+00,443,5.42E-01,-5.56E-03,-1.75E-02
2.44E-02,1.06E+00,537,6.77E-01,-8.51E-03,-1.68E-02
2.44E-02,1.09E+00,516,7.19E-01,-8.87E-03,-1.94E-02
2.44E-02,1.11E+00,430,7.54E-01,-6.71E-03,-1.91E-02
2.44E-02,1.14E+00,426,7.74E-01,-6.10E-03,-1.46E-02
2.44E-02,1.16E+00,376,7.86E-01,-2.34E-03,-2.00E-02
2.44E-02,1.19E+00,369,8.05E-01,-5.84E-03,-1.87E-02
2.44E-02,1.21E+00,344,8.16E-01,-2.45E-03,-1.82E-02
2.44E-02,1.23E+00,355,8.22E-01,-1.70E-03,-1.71E-02
2.44E-02,1.26E+00,414,8.32E-01,4.57E-04,-2.04E-02
2.44E-02,1.28E+00,440,8.41E-01,3.99E-03,-1.61E-02
2.44E-02,1.31E+00,505,8.41E-01,5.52E-03,-1.82E-02
2.44E-02,1.33E+00,550,8.57E-01,2.80E-03,-1.54E-02
2.44E-02,1.36E+00,603,8.71E-01,1.76E-03,-1.73E-02
2.44E-02,1.38E+00,624,8.77E-01,-6.25E-04,-1.55E-02
2.44E-02,1.41E+00,654,8.91E-01,-4.81E-04,-1.41E-02
2.44E-02,1.43E+00,702,9.01E-01,-1.38E-03,-1.69E-02
2.44E-02,1.45E+00,749,9.10E-01,-3.92E-03,-1.82E-02
2.44E-02,1.48E+00,748,9.17E-01,-6.01E-03,-1.75E-02
2.44E-02,1.50E+00,721,9.24E-01,-1.02E-03,-1.64E-02
2.44E-02,1.53E+00,712,9.33E-01,-7.49E-04,-1.80E-02
2.44E-02,1.55E+00,752,9.36E-01,-3.72E-03,-1.34E-02
2.44E-02,1.58E+00,676,9.47E-01,-1.80E-03,-2.19E-02
2.44E-02,1.60E+00,698,9.51E-01,-1.30E-03,-1.79E-02
2.44E-02,1.63E+00,715,9.57E-01,-3.22E-03,-1.99E-02
2.44E-02,1.65E+00,716,9.60E-01,-9.46E-04,-1.66E-02
2.44E-02,1.67E+00,704,9.68E-01,-1.69E-03,-1.60E-02
2.44E-02,1.70E+00,768,9.70E-01,-5.69E-04,-1.79E-02
2.44E-02,1.72E+00,701,9.75E-01,-1.88E-03,-1.98E-02
2.44E-02,1.75E+00,627,9.81E-01,-4.26E-04,-2.05E-02
2.44E-02,1.77E+00,687,9.79E-01,-3.25E-03,-1.93E-02
2.44E-02,1.80E+00,669,9.82E-01,1.76E-03,-1.90E-02
2.44E-02,1.82E+00,719,9.91E-01,-2.57E-03,-1.92E-02
2.44E-02,1.85E+00,664,9.92E-01,-2.17E-03,-1.74E-02
2.44E-02,1.87E+00,689,9.95E-01,-4.06E-04,-1.97E-02
2.44E-02,1.89E+00,673,9.99E-01,-4.84E-03,-1.75E-02
2.44E-02,1.92E+00,627,9.95E-01,1.01E-03,-2.05E-02
2.44E-02,1.94E+00,664,9.99E-01,-1.84E-03,-1.82E-02
2.44E-02,1.97E+00,648,1.01E+00,-1.61E-03,-1.83E-02
2.44E-02,1.99E+00,641,9.97E-01,-3.56E-03,-1.92E-02
2.44E-02,2.02E+00,615,1.00E+00,-2.80E-03,-2.05E-02
2.44E-02,2.04E+00,568,9.96E-01,-2.14E-03,-2.17E-02
2.44E-02,2.07E+00,623,9.97E-01,-4.24E-04,-1.95E-02
2.44E-02,2.09E+00,618,9.94E-01,-1.94E-03,-1.88E-02
2.44E-02,2.12E+00,569,9.91E-01,-1.15E-03,-2.01E-02
2.44E-02,2.14E+00,597,9.87E-01,-2.83E-03,-1.90E-02
2.44E-02,2.16E+00,550,9.86E-01,-1.16E-03,-1.89E-02
2.44E-02,2.19E+00,596,9.83E-01,-2.89E-03,-2.15E-02
2.44E-02,2.21E+00,571,9.80E-01,-2.34E-03,-1.70E-02
2.44E-02,2.24E+00,565,9.72E-01,-2.25E-03,-2.08E-02
2.44E-02,2.26E+00,559,9.67E-01,-2.94E-03,-2.09E-02
2.44E-02,2.29E+00,595,9.61E-01,-2.84E-03,-1.91E-02
2.44E-02,2.31E+00,567,9.59E-01,-3.30E-03,-1.98E-02
2.44E-02,2.34E+00,576,9.54E-01,1.85E-04,-1.72E-02
2.44E-02,2.36E+00,604,9.47E-01,-3.40E-03,-1.84E-02
2.44E-02,2.38E+00,607,9.37E-01,-3.16E-03,-2.25E-02
2.44E-02,2.41E+00,645,9.35E-01,-3.33E-03,-1.98E-02
2.44E-02,2.43E+00,577,9.23E-01,-1.94E-03,-1.85E-02
2.44E-02,2.46E+00,624,9.19E-01,-5.00E-03,-2.15E-02
2.44E-02,2.48E+00,600,9.16E-01,-2.49E-03,-2.21E-02
2.44E-02,2.51E+00,627,9.07E-01,-3.38E-03,-2.10E-02
2.44E-02,2.53E+00,647,8.98E-01,-2.45E-03,-2.32E-02
2.44E-02,2.55E+00,706,8.91E-01,-1.83E-03,-2.43E-02
2.44E-02,2.58E+00,661,8.84E-01,-3.86E-03,-2.01E-02
2.44E-02,2.60E+00,716,8.74E-01,-5.16E-03,-1.89E-02
2.44E-02,2.63E+00,678,8.69E-01,-2.07E-03,-1.90E-02
2.44E-02,2.65E+00,698,8.55E-01,-2.99E-03,-2.19E-02
2.44E-02,2.68E+00,702,8.44E-01,-2.36E-03,-1.88E-02
2.44E-02,2.70E+00,720,8.33E-01,-3.43E-03,-2.09E-02
2.44E-02,2.73E+00,788,8.21E-01,-3.88E-03,-1.91E-02
2.44E-02,2.75E+00,686,8.12E-01,-2.19E-03,-1.93E-02
2.44E-02,2.78E+00,764,7.91E-01,-3.08E-03,-1.53E-02
2.44E-02,2.80E+00,739,7.76E-01,-4.13E-03,-1.77E-02
2.44E-02,2.82E+00,736,7.61E-01,-4.14E-03,-1.54E-02
2.44E-02,2.85E+00,738,7.41E-01,2.59E-03,-1.76E-02
2.44E-02,2.87E+00,734,7.03E-01,-2.98E-03,-2.18E-02
2.44E-02,2.90E+00,710,6.61E-01,-8.47E-04,-1.39E-02
2.44E-02,2.92E+00,721,5.68E-01,-8.94E-04,-1.74E-02
2.44E-02,2.95E+00,689,3.76E-01,-1.16E-03,-1.39E-02
2.44E-02,2.96E+00,195,2.21E-01,-7.13E-04,-9.13E-03
1.00E+00,1.70E-02,3,3.92E-03,2.90E-03,-1.36E-02
1.00E+00,4.13E-02,128,7.06E-03,-2.31E-04,-1.15E-03
1.00E+00,6.09E-02,207,7.43E-03,1.24E-03,-2.15E-03
1.00E+00,8.49E-02,208,6.71E-03,3.79E-04,-1.18E-02
1.00E+00,1.12E-01,254,3.71E-03,-4.11E-03,-1.36E-03
1.00E+00,1.34E-01,205,-8.32E-03,-1.11E-03,-2.25E-02
1.00E+00,1.60E-01,203,-1.38E-02,6.31E-03,-1.33E-02
1.00E+00,1.83E-01,277,-1.05E-02,2.40E-03,-1.48E-02
1.00E+00,2.07E-01,299,-1.60E-02,3.46E-03,-2.67E-02
1.00E+00,2.33E-01,277,-1.01E-02,8.01E-03,-2.35E-02
1.00E+00,2.56E-01,298,-2.45E-02,6.01E-03,-2.36E-02
1.00E+00,2.81E-01,286,-1.33E-02,1.16E-02,-2.02E-02
1.00E+00,3.05E-01,304,-2.14E-02,1.76E-02,-2.22E-02
1.00E+00,3.31E-01,309,-2.67E-02,1.67E-02,-1.76E-02
1.00E+00,3.55E-01,397,-2.43E-02,1.25E-02,-1.30E-02
1.00E+00,3.78E-01,307,-2.97E-02,1.74E-02,-1.53E-02
1.00E+00,4.04E-01,350,-4.07E-02,2.40E-02,-2.09E-02
1.00E+00,4.29E-01,455,-3.80E-02,2.38E-02,-1.58E-02
1.00E+00,4.52E-01,424,-3.94E-02,2.64E-02,-1.82E-02
1.00E+00,4.76E-01,426,-4.11E-02,2.66E-02,-1.93E-02
1.00E+00,5.02E-01,379,-3.83E-02,3.19E-02,-1.55E-02
1.00E+00,5.25E-01,389,-5.09E-02,3.31E-02,-1.64E-02
1.00E+00,5.50E-01,376,-5.42E-02,4.00E-02,-2.13E-02
1.00E+00,5.75E-01,450,-4.56E-02,3.68E-02,-1.75E-02
1.00E+00,5.99E-01,417,-5.25E-02,3.69E-02,-1.86E-02
1.00E+00,6.23E-01,422,-5.07E-02,3.84E-02,-1.72E-02
1.00E+00,6.48E-01,453,-5.14E-02,3.99E-02,-7.98E-03
1.00E+00,6.73E-01,400,-4.69E-02,4.51E-02,-1.12E-02
1.00E+00,6.97E-01,434,-4.91E-02,4.01E-02,-1.21E-02
1.00E+00,7.21E-01,414,-4.25E-02,4.40E-02,-7.31E-03
1.00E+00,7.46E-01,417,-4.55E-02,4.90E-02,-1.15E-02
1.00E+00,7.70E-01,406,-3.83E-02,4.62E-02,-2.14E-02
1.00E+00,7.95E-01,463,-2.16E-02,4.15E-02,-2.18E-02
1.00E+00,8.19E-01,418,-1.81E-02,3.78E-02,-2.50E-02
1.00E+00,8.44E-01,397,6.00E-03,3.04E-02,-1.35E-02
1.00E+00,8.68E-01,502,4.23E-02,1.19E-02,-2.03E-02
1.00E+00,8.92E-01,462,7.90E-02,2.24E-02,-1.82E-02
1.00E+00,9.17E-01,427,1.20E-01,6.67E-03,-1.78E-02
1.00E+00,9.42E-01,394,1.83E-01,-3.20E-03,-1.62E-02
1.00E+00,9.66E-01,437,2.60E-01,-1.79E-02,-1.49E-02
1.00E+00,9.91E-01,461,3.24E-01,-1.15E-02,-2.57E-02
1.00E+00,1.01E+00,544,4.20E-01,-2.39E-02,-1.75E-02
1.00E+00,1.04E+00,526,5.20E-01,-2.56E-02,-1.43E-02
1.00E+00,1.06E+00,609,6.14E-01,-3.51E-02,-1.39E-02
1.00E+00,1.09E+00,750,6.71E-01,-2.77E-02,-1.80E-02
1.00E+00,1.11E+00,805,7.13E-01,-1.96E-02,-1.54E-02
1.00E+00,1.14E+00,935,7.48E-01,-1.41E-02,-1.62E-02
1.00E+00,1.16E+00,958,7.70E-01,-1.52E-02,-1.42E-02
1.00E+00,1.19E+00,1000,7.93E-01,-1.15E-02,-1.78E-02
1.00E+00,1.21E+00,1009,8.10E-01,-7.55E-03,-2.08E-02
1.00E+00,1.24E+00,1001,8.22E-01,-8.75E-03,-1.77E-02
1.00E+00,1.26E+00,976,8.31E-01,-5.44E-03,-1.77E-02
1.00E+00,1.28E+00,951,8.49E-01,-8.37E-03,-1.92E-02
1.00E+00,1.31E+00,1039,8.57E-01,-8.57E-03,-1.63E-02
1.00E+00,1.33E+00,1063,8.68E-01,-1.00E-02,-1.56E-02
1.00E+00,1.36E+00,1009,8.75E-01,-9.43E-03,-1.48E-02
1.00E+00,1.38E+00,1010,8.82E-01,-9.51E-03,-1.72E-02
1.00E+00,1.41E+00,980,8.94E-01,-7.93E-03,-1.47E-02
1.00E+00,1.43E+00,1018,9.00E-01,-7.52E-03,-1.51E-02
1.00E+00,1.45E+00,1012,9.07E-01,-8.88E-03,-1.45E-02
1.00E+00,1.48E+00,978,9.11E-01,-5.82E-03,-1.95E-02
1.00E+00,1.50E+00,1028,9.23E-01,-8.31E-03,-1.47E-02
1.00E+00,1.53E+00,1022,9.28E-01,-7.16E-03,-1.35E-02
1.00E+00,1.55E+00,965,9.39E-01,-9.80E-03,-1.38E-02
1.00E+00,1.58E+00,933,9.41E-01,-6.44E-03,-1.45E-02
1.00E+00,1.60E+00,938,9.49E-01,-5.20E-03,-1.77E-02
1.00E+00,1.63E+00,968,9.54E-01,-7.71E-03,-1.91E-02
1.00E+00,1.65E+00,873,9.58E-01,-7.38E-03,-1.62E-02
1.00E+00,1.67E+00,941,9.62E-01,-8.51E-03,-1.82E-02
1.00E+00,1.70E+00,982,9.70E-01,-6.48E-03,-1.57E-02
1.00E+00,1.72E+00,968,9.70E-01,-6.94E-03,-2.01E-02
1.00E+00,1.75E+00,934,9.78E-01,-6.91E-03,-2.06E-02
1.00E+00,1.77E+00,891,9.82E-01,-5.28E-03,-2.09E-02
1.00E+00,1.80E+00,870,9.87E-01,-8.93E-03,-1.75E-02
1.00E+00,1.82E+00,897,9.90E-01,-1.12E-02,-1.67E-02
1.00E+00,1.85E+00,853,9.92E-01,-8.48E-03,-1.90E-02
1.00E+00,1.87E+00,916,9.92E-01,-8.62E-03,-2.03E-02
1.00E+00,1.89E+00,894,9.98E-01,-8.86E-03,-1.80E-02
1.00E+00,1.92E+00,858,9.98E-01,-9.17E-03,-2.06E-02
1.00E+00,1.94E+00,845,1.00E+00,-5.42E-03,-2.03E-02
1.00E+00,1.97E+00,809,9.98E-01,-8.70E-03,-1.83E-02
1.00E+00,1.99E+00,838,9.96E-01,-4.97E-03,-1.99E-02
1.00E+00,2.02E+00,756,9.97E-01,-8.56E-03,-1.84E-02
1.00E+00,2.04E+00,777,9.99E-01,-6.03E-03,-1.94E-02
1.00E+00,2.07E+00,785,9.95E-01,-6.80E-03,-2.12E-02
1.00E+00,2.09E+00,768,9.94E-01,-6.21E-03,-1.99E-02
1.00E+00,2.11E+00,814,9.89E-01,-6.57E-03,-1.95E-02
1.00E+00,2.14E+00,842,9.88E-01,-5.60E-03,-2.00E-02
1.00E+00,2.16E+00,789,9.84E-01,-5.06E-03,-1.83E-02
1.00E+00,2.19E+00,762,9.79E-01,-9.91E-03,-1.79E-02
1.00E+00,2.21E+00,797,9.76E-01,-5.36E-03,-1.77E-02
1.00E+00,2.24E+00,672,9.69E-01,-7.56E-03,-2.14E-02
1.00E+00,2.26E+00,747,9.63E-01,-7.35E-03,-1.71E-02
1.00E+00,2.29E+00,646,9.58E-01,-6.02E-03,-1.94E-02
1.00E+00,2.31E+00,623,9.57E-01,-2.80E-03,-2.10E-02
1.00E+00,2.33E+00,609,9.47E-01,-6.42E-03,-1.91E-02
1.00E+00,2.36E+00,603,9.40E-01,-7.96E-03,-1.73E-02
1.00E+00,2.38E+00,485,9.38E-01,-6.05E-03,-2.06E-02
1.00E+00,2.41E+00,494,9.29E-01,-4.40E-03,-1.79E-02
1.00E+00,2.43E+00,480,9.21E-01,-2.47E-03,-2.02E-02
1.00E+00,2.46E+00,391,9.15E-01,-3.08E-03,-1.56E-02
1.00E+00,2.48E+00,349,9.06E-01,-3.34E-03,-2.00E-02
1.00E+00,2.51E+00,270,8.93E-01,-9.33E-03,-2.03E-02
1.00E+00,2.53E+00,240,8.99E-01,-4.48E-03,-1.80E-02
1.00E+00,2.55E+00,261,8.86E-01,-8.88E-03,-1.79E-02
1.00E+00,2.58E+00,265,8.92E-01,-5.12E-03,-1.66E-02
1.00E+00,2.60E+00,323,8.83E-01,-3.49E-03,-2.24E-02
1.00E+00,2.63E+00,348,8.80E-01,-1.35E-03,-2.17E-02
1.00E+00,2.65E+00,384,8.58E-01,-7.25E-03,-2.20E-02
1.00E+00,2.68E+00,521,8.48E-01,-2.61E-03,-1.74E-02
1.00E+00,2.70E+00,570,8.38E-01,-6.80E-03,-1.73E-02
1.00E+00,2.73E+00,576,8.33E-01,-6.55E-04,-1.94E-02
1.00E+00,2.75E+00,630,8.10E-01,1.02E-03,-1.77E-02
1.00E+00,2.77E+00,671,7.96E-01,-2.61E-03,-2.35E-02
1.00E+00,2.80E+00,614,7.79E-01,-3.57E-03,-2.39E-02
1.00E+00,2.82E+00,597,7.62E-01,-4.41E-03,-2.70E-02
1.00E+00,2.85E+00,570,7.46E-01,-3.82E-03,-2.08E-02
1.00E+00,2.87E+00,445,7.32E-01,-2.08E-03,-1.59E-02
1.00E+00,2.90E+00,340,7.16E-01,8.94E-04,-3.20E-02
1.00E+00,2.92E+00,155,6.45E-01,2.94E-03,-1.69E-02
1.00E+00,2.95E+00,254,2.68E-01,-3.56E-03,-1.28E-02
1.00E+00,2.96E+00,100,1.99E-01,-1.66E-03,-5.83E-03
2.02E+00,2.12E-02,25,-2.08E-03,3.10E-03,-7.32E-03
2.02E+00,3.73E-02,230,-6.63E-03,9.43E-04,-8.14E-03
2.02E+00,6.16E-02,209,-2.33E-02,-6.31E-04,-2.46E-03
2.02E+00,8.61E-02,232,-4.88E-02,1.02E-02,-2.64E-03
2.02E+00,1.10E-01,242,-8.27E-02,1.13E-02,1.98E-03
2.02E+00,1.34E-01,231,-9.90E-02,2.30E-02,-1.77E-02
2.02E+00,1.59E-01,227,-9.95E-02,2.29E-02,-1.62E-02
2.02E+00,1.83E-01,205,-9.83E-02,2.52E-02,-2.61E-02
2.02E+00,2.08E-01,242,-9.93E-02,2.77E-02,-1.93E-02
2.02E+00,2.32E-01,238,-1.01E-01,2.94E-02,-1.39E-02
2.02E+00,2.57E-01,219,-1.11E-01,3.39E-02,-2.01E-02
2.02E+00,2.80E-01,226,-1.10E-01,3.89E-02,-2.52E-02
2.02E+00,3.06E-01,244,-1.28E-01,4.67E-02,-2.11E-02
2.02E+00,3.30E-01,224,-1.27E-01,4.54E-02,-2.62E-02
2.02E+00,3.55E-01,214,-1.22E-01,4.62E-02,-1.49E-02
2.02E+00,3.79E-01,240,-1.13E-01,4.93E-02,-2.08E-02
2.02E+00,4.03E-01,211,-9.73E-02,4.55E-02,-3.06E-02
2.02E+00,4.28E-01,249,-9.54E-02,4.33E-02,-2.01E-02
2.02E+00,4.53E-01,253,-8.47E-02,5.03E-02,-2.55E-02
2.02E+00,4.77E-01,221,-8.02E-02,5.12E-02,-2.06E-02
2.02E+00,5.02E-01,226,-4.92E-02,4.52E-02,-1.87E-02
2.02E+00,5.26E-01,182,-5.87E-02,4.39E-02,-2.28E-02
2.02E+00,5.51E-01,238,-5.22E-02,3.52E-02,-9.63E-03
2.02E+00,5.74E-01,213,-3.79E-02,3.39E-02,-2.91E-02
2.02E+00,6.00E-01,206,-2.61E-02,2.85E-02,-2.53E-02
2.02E+00,6.22E-01,192,1.22E-02,3.52E-02,-1.01E-02
2.02E+00,6.48E-01,194,8.24E-03,3.33E-02,-1.74E-02
2.02E+00,6.73E-01,196,3.97E-02,3.34E-02,-2.60E-02
2.02E+00,6.97E-01,244,6.07E-02,2.81E-02,-1.98E-02
2.02E+00,7.21E-01,214,7.33E-02,3.33E-02,-1.47E-02
2.02E+00,7.46E-01,197,6.98E-02,2.22E-02,-2.80E-02
2.02E+00,7.70E-01,211,1.23E-01,9.58E-03,-3.44E-02
2.02E+00,7.95E-01,221,1.47E-01,3.49E-03,-5.41E-03
2.02E+00,8.18E-01,206,1.61E-01,1.69E-02,-1.75E-02
2.02E+00,8.44E-01,186,2.16E-01,-9.88E-03,-4.38E-03
2.02E+00,8.68E-01,225,2.23E-01,-4.12E-03,-1.83E-02
2.02E+00,8.93E-01,243,2.53E-01,-5.50E-03,-3.31E-02
2.02E+00,9.17E-01,194,3.11E-01,4.77E-03,-1.17E-02
2.02E+00,9.43E-01,204,3.53E-01,-1.15E-02,-1.60E-02
2.02E+00,9.66E-01,206,4.09E-01,-1.90E-02,-2.58E-02
2.02E+00,9.91E-01,210,4.52E-01,-8.51E-03,-2.31E-02
2.02E+00,1.01E+00,225,5.00E-01,-3.66E-02,-1.51E-02
2.02E+00,1.04E+00,200,5.43E-01,-1.71E-02,-4.97E-02
2.02E+00,1.06E+00,240,5.47E-01,-2.69E-02,-9.57E-03
2.02E+00,1.09E+00,295,6.51E-01,-5.11E-02,-1.27E-02
2.02E+00,1.11E+00,269,6.73E-01,-4.63E-02,-2.24E-02
2.02E+00,1.14E+00,328,7.08E-01,-3.64E-02,-1.03E-02
2.02E+00,1.16E+00,336,7.37E-01,-3.64E-02,-1.79E-02
2.02E+00,1.19E+00,329,7.67E-01,-3.02E-02,-2.11E-02
2.02E+00,1.21E+00,376,7.88E-01,-3.01E-02,-1.98E-02
2.02E+00,1.23E+00,440,8.09E-01,-2.46E-02,-9.60E-03
2.02E+00,1.26E+00,439,8.31E-01,-2.09E-02,-1.96E-02
2.02E+00,1.28E+00,439,8.50E-01,-2.30E-02,-1.50E-02
2.02E+00,1.31E+00,545,8.56E-01,-2.36E-02,-1.32E-02
2.02E+00,1.33E+00,506,8.67E-01,-1.94E-02,-1.43E-02
2.02E+00,1.36E+00,526,8.77E-01,-1.05E-02,-1.33E-02
2.02E+00,1.38E+00,524,8.90E-01,-1.72E-02,-1.66E-02
2.02E+00,1.41E+00,494,8.97E-01,-1.51E-02,-1.84E-02
2.02E+00,1.43E+00,533,9.01E-01,-1.32E-02,-1.26E-02
2.02E+00,1.46E+00,542,9.12E-01,-1.42E-02,-1.96E-02
2.02E+00,1.48E+00,525,9.16E-01,-1.20E-02,-1.43E-02
2.02E+00,1.50E+00,563,9.26E-01,-1.19E-02,-1.62E-02
2.02E+00,1.53E+00,566,9.25E-01,-1.34E-02,-1.99E-02
2.02E+00,1.55E+00,562,9.34E-01,-1.06E-02,-1.59E-02
2.02E+00,1.58E+00,580,9.44E-01,-1.03E-02,-1.78E-02
2.02E+00,1.60E+00,604,9.44E-01,-1.10E-02,-2.15E-02
2.02E+00,1.63E+00,581,9.49E-01,-1.33E-02,-1.52E-02
2.02E+00,1.65E+00,604,9.60E-01,-1.37E-02,-1.58E-02
2.02E+00,1.67E+00,586,9.60E-01,-1.40E-02,-1.78E-02
2.02E+00,1.70E+00,595,9.63E-01,-1.31E-02,-1.90E-02
2.02E+00,1.72E+00,598,9.69E-01,-1.21E-02,-2.03E-02
2.02E+00,1.75E+00,577,9.78E-01,-1.27E-02,-1.90E-02
2.02E+00,1.77E+00,673,9.74E-01,-9.12E-03,-1.87E-02
2.02E+00,1.80E+00,645,9.80E-01,-9.96E-03,-1.82E-02
2.02E+00,1.82E+00,628,9.84E-01,-1.13E-02,-1.93E-02
2.02E+00,1.85E+00,630,9.85E-01,-1.25E-02,-1.84E-02
2.02E+00,1.87E+00,643,9.88E-01,-1.14E-02,-1.98E-02
2.02E+00,1.90E+00,636,9.86E-01,-1.10E-02,-1.92E-02
2.02E+00,1.92E+00,642,9.90E-01,-9.04E-03,-1.91E-02
2.02E+00,1.94E+00,652,9.91E-01,-1.07E-02,-1.72E-02
2.02E+00,1.97E+00,652,9.90E-01,-9.40E-03,-1.96E-02
2.02E+00,1.99E+00,668,9.91E-01,-1.17E-02,-1.75E-02
2.02E+00,2.02E+00,725,9.89E-01,-1.23E-02,-2.12E-02
2.02E+00,2.04E+00,673,9.91E-01,-9.54E-03,-1.96E-02
2.02E+00,2.07E+00,663,9.86E-01,-1.07E-02,-1.84E-02
2.02E+00,2.09E+00,641,9.82E-01,-1.04E-02,-1.81E-02
2.02E+00,2.11E+00,623,9.82E-01,-1.24E-02,-1.65E-02
2.02E+00,2.14E+00,644,9.79E-01,-9.11E-03,-1.96E-02
2.02E+00,2.16E+00,607,9.75E-01,-1.17E-02,-2.05E-02
2.02E+00,2.19E+00,601,9.72E-01,-8.72E-03,-1.60E-02
2.02E+00,2.21E+00,610,9.66E-01,-1.06E-02,-1.93E-02
2.02E+00,2.24E+00,594,9.59E-01,-8.19E-03,-1.80E-02
2.02E+00,2.26E+00,549,9.58E-01,-1.02E-02,-2.00E-02
2.02E+00,2.29E+00,545,9.52E-01,-8.27E-03,-1.96E-02
2.02E+00,2.31E+00,549,9.48E-01,-7.03E-03,-1.77E-02
2.02E+00,2.34E+00,564,9.43E-01,-8.49E-03,-2.20E-02
2.02E+00,2.36E+00,526,9.36E-01,-5.51E-03,-1.99E-02
2.02E+00,2.38E+00,499,9.27E-01,-1.05E-02,-1.76E-02
2.02E+00,2.41E+00,506,9.20E-01,-5.84E-03,-1.91E-02
2.02E+00,2.43E+00,493,9.16E-01,-1.06E-02,-2.03E-02
2.02E+00,2.46E+00,447,9.09E-01,-6.66E-03,-1.47E-02
2.02E+00,2.48E+00,423,8.98E-01,-6.89E-03,-1.78E-02
2.02E+00,2.51E+00,447,8.93E-01,-4.18E-03,-1.59E-02
2.02E+00,2.53E+00,431,8.79E-01,-1.27E-02,-1.67E-02
2.02E+00,2.55E+00,433,8.71E-01,-7.21E-03,-1.72E-02
2.02E+00,2.58E+00,463,8.60E-01,-7.48E-03,-1.52E-02
2.02E+00,2.60E+00,453,8.55E-01,-6.22E-03,-2.09E-02
2.02E+00,2.63E+00,448,8.56E-01,-5.60E-03,-1.46E-02
2.02E+00,2.65E+00,468,8.41E-01,-3.72E-03,-1.58E-02
2.02E+00,2.68E+00,478,8.28E-01,-6.53E-03,-2.04E-02
2.02E+00,2.70E+00,462,8.13E-01,-8.49E-03,-1.65E-02
2.02E+00,2.73E+00,460,8.06E-01,-1.13E-03,-2.27E-02
2.02E+00,2.75E+00,481,7.90E-01,-4.72E-03,-1.87E-02
2.02E+00,2.77E+00,477,7.84E-01,-3.68E-03,-1.72E-02
2.02E+00,2.80E+00,489,7.59E-01,-4.49E-03,-1.44E-02
2.02E+00,2.82E+00,519,7.26E-01,-5.77E-03,-1.81E-02
2.02E+00,2.85E+00,532,7.13E-01,-2.67E-03,-1.67E-02
2.02E+00,2.87E+00,523,6.74E-01,-6.07E-04,-1.58E-02
2.02E+00,2.90E+00,488,6.30E-01,-3.47E-03,-1.07E-02
2.02E+00,2.92E+00,524,5.55E-01,-1.75E-04,-1.47E-02
2.02E+00,2.95E+00,501,3.45E-01,-5.57E-04,-1.22E-02
2.02E+00,2.96E+00,160,2.04E-01,-7.60E-04,-6.48E-03
3.00E+00,2.10E-02,1,-6.48E-02,-1.05E-03,7.44E-02
3.00E+00,4.10E-02,13,-9.66E-02,6.40E-03,2.88E-02
3.00E+00,6.14E-02,29,-1.65E-01,3.24E-03,5.38E-02
3.00E+00,8.62E-02,27,-1.73E-01,1.53E-02,-5.05E-03
3.00E+00,1.11E-01,40,-1.78E-01,1.14E-02,1.80E-02
3.00E+00,1.35E-01,26,-1.98E-01,1.44E-02,-9.67E-03
3.00E+00,1.61E-01,21,-2.22E-01,9.67E-03,-3.80E-02
3.00E+00,1.84E-01,14,-2.12E-01,2.54E-02,-3.20E-02
3.00E+00,2.10E-01,35,-1.69E-01,5.82E-03,1.69E-02
3.00E+00,2.29E-01,20,-1.99E-01,5.49E-02,-2.63E-02
3.00E+00,2.57E-01,27,-2.14E-01,5.77E-02,-2.41E-02
3.00E+00,2.80E-01,31,-1.37E-01,2.21E-02,-2.44E-02
3.00E+00,3.06E-01,9,-1.56E-01,1.00E-01,-6.61E-03
3.00E+00,3.29E-01,39,-1.20E-01,1.01E-02,-2.44E-03
3.00E+00,3.52E-01,24,-9.11E-02,-1.71E-02,4.08E-02
3.00E+00,3.78E-01,46,-8.17E-02,9.21E-03,1.61E-02
3.00E+00,4.05E-01,55,-4.99E-02,-3.30E-02,-2.01E-02
3.00E+00,4.28E-01,72,-3.71E-02,-6.18E-03,-2.57E-02
3.00E+00,4.52E-01,66,-2.85E-02,1.59E-02,2.32E-02
3.00E+00,4.76E-01,47,-6.61E-02,1.77E-02,-1.77E-02
3.00E+00,5.03E-01,53,2.56E-03,-2.73E-02,-3.28E-02
3.00E+00,5.26E-01,63,2.15E-02,-7.76E-03,-3.09E-02
3.00E+00,5.50E-01,55,4.94E-02,1.54E-03,-3.79E-02
3.00E+00,5.75E-01,38,6.33E-02,-2.28E-02,-6.42E-03
3.00E+00,6.00E-01,52,8.19E-02,-9.85E-03,-2.40E-02
3.00E+00,6.24E-01,71,1.18E-01,-2.08E-02,-1.87E-02
3.00E+00,6.49E-01,69,7.57E-02,-3.07E-02,-2.52E-02
3.00E+00,6.72E-01,71,1.57E-01,-1.39E-02,-3.37E-03
3.00E+00,6.97E-01,85,1.41E-01,-1.49E-02,-1.94E-02
3.00E+00,7.21E-01,66,1.93E-01,-4.25E-02,-3.00E-02
3.00E+00,7.46E-01,38,1.74E-01,-2.14E-02,-3.66E-02
3.00E+00,7.69E-01,84,2.32E-01,-3.36E-02,-4.18E-02
3.00E+00,7.96E-01,99,2.53E-01,-8.78E-03,-7.27E-03
3.00E+00,8.19E-01,86,3.22E-01,-3.30E-02,-2.78E-02
3.00E+00,8.43E-01,93,3.15E-01,-2.60E-02,-3.65E-02
3.00E+00,8.68E-01,93,3.73E-01,-5.29E-03,-4.18E-02
3.00E+00,8.93E-01,113,3.78E-01,-4.17E-02,-4.79E-03
3.00E+00,9.17E-01,123,4.25E-01,-4.94E-02,1.07E-02
3.00E+00,9.42E-01,147,4.34E-01,-4.86E-02,-2.07E-02
3.00E+00,9.65E-01,126,4.49E-01,-4.21E-02,-3.33E-02
3.00E+00,9.91E-01,109,5.47E-01,-6.01E-02,-1.43E-02
3.00E+00,1.01E+00,181,5.25E-01,-3.58E-02,-1.42E-02
3.00E+00,1.04E+00,179,5.48E-01,-3.51E-02,-1.53E-02
3.00E+00,1.06E+00,206,5.90E-01,-3.94E-02,8.93E-03
3.00E+00,1.09E+00,187,6.16E-01,-4.55E-02,-1.64E-03
3.00E+00,1.11E+00,224,6.66E-01,-4.76E-02,-1.67E-02
3.00E+00,1.14E+00,226,7.05E-01,-4.14E-02,-2.22E-03
3.00E+00,1.16E+00,254,7.23E-01,-5.03E-02,-2.70E-03
3.00E+00,1.19E+00,257,7.37E-01,-4.21E-02,-4.19E-03
3.00E+00,1.21E+00,261,7.66E-01,-3.96E-02,-1.92E-02
3.00E+00,1.24E+00,298,7.91E-01,-3.59E-02,-1.47E-02
3.00E+00,1.26E+00,298,7.95E-01,-2.97E-02,-2.65E-02
3.00E+00,1.28E+00,354,8.18E-01,-3.68E-02,-1.41E-02
3.00E+00,1.31E+00,326,8.26E-01,-3.67E-02,-1.51E-02
3.00E+00,1.33E+00,325,8.54E-01,-3.13E-02,-1.80E-02
3.00E+00,1.36E+00,390,8.67E-01,-3.75E-02,-1.66E-02
3.00E+00,1.38E+00,419,8.78E-01,-3.72E-02,-1.64E-02
3.00E+00,1.41E+00,419,8.90E-01,-3.45E-02,-1.65E-02
3.00E+00,1.43E+00,464,8.93E-01,-3.07E-02,-1.27E-02
3.00E+00,1.45E+00,476,9.04E-01,-3.02E-02,-2.09E-02
3.00E+00,1.48E+00,470,9.08E-01,-2.94E-02,-1.41E-02
3.00E+00,1.50E+00,464,9.13E-01,-2.80E-02,-1.58E-02
3.00E+00,1.53E+00,520,9.23E-01,-3.16E-02,-1.78E-02
3.00E+00,1.55E+00,497,9.36E-01,-2.97E-02,-2.17E-02
3.00E+00,1.58E+00,504,9.35E-01,-2.92E-02,-1.61E-02
3.00E+00,1.60E+00,600,9.39E-01,-2.45E-02,-1.70E-02
3.00E+00,1.63E+00,503,9.48E-01,-2.96E-02,-1.84E-02
3.00E+00,1.65E+00,584,9.49E-01,-2.84E-02,-1.84E-02
3.00E+00,1.67E+00,581,9.52E-01,-2.69E-02,-1.78E-02
3.00E+00,1.70E+00,589,9.58E-01,-2.87E-02,-1.82E-02
3.00E+00,1.72E+00,602,9.60E-01,-2.80E-02,-1.94E-02
3.00E+00,1.75E+00,607,9.65E-01,-2.56E-02,-1.87E-02
3.00E+00,1.77E+00,617,9.71E-01,-2.40E-02,-1.78E-02
3.00E+00,1.80E+00,621,9.73E-01,-2.45E-02,-1.66E-02
3.00E+00,1.82E+00,668,9.72E-01,-2.52E-02,-2.00E-02
3.00E+00,1.85E+00,750,9.73E-01,-2.47E-02,-1.71E-02
3.00E+00,1.87E+00,706,9.77E-01,-2.40E-02,-1.90E-02
3.00E+00,1.89E+00,736,9.76E-01,-2.42E-02,-1.76E-02
3.00E+00,1.92E+00,717,9.79E-01,-2.39E-02,-1.97E-02
3.00E+00,1.94E+00,707,9.76E-01,-2.60E-02,-1.61E-02
3.00E+00,1.97E+00,753,9.79E-01,-2.28E-02,-1.98E-02
3.00E+00,1.99E+00,716,9.76E-01,-2.40E-02,-1.96E-02
3.00E+00,2.02E+00,753,9.76E-01,-2.56E-02,-2.04E-02
3.00E+00,2.04E+00,766,9.73E-01,-2.21E-02,-1.81E-02
3.00E+00,2.07E+00,724,9.73E-01,-2.29E-02,-1.92E-02
3.00E+00,2.09E+00,740,9.69E-01,-2.10E-02,-1.94E-02
3.00E+00,2.12E+00,785,9.62E-01,-1.93E-02,-1.70E-02
3.00E+00,2.14E+00,768,9.64E-01,-1.95E-02,-1.77E-02
3.00E+00,2.16E+00,782,9.59E-01,-2.09E-02,-1.81E-02
3.00E+00,2.19E+00,733,9.55E-01,-2.06E-02,-1.92E-02
3.00E+00,2.21E+00,724,9.46E-01,-1.97E-02,-1.92E-02
3.00E+00,2.24E+00,719,9.41E-01,-2.05E-02,-1.87E-02
3.00E+00,2.26E+00,725,9.40E-01,-1.88E-02,-2.02E-02
3.00E+00,2.29E+00,698,9.32E-01,-2.00E-02,-1.85E-02
3.00E+00,2.31E+00,697,9.24E-01,-1.56E-02,-1.67E-02
3.00E+00,2.34E+00,660,9.19E-01,-1.98E-02,-1.91E-02
3.00E+00,2.36E+00,652,9.14E-01,-1.46E-02,-2.19E-02
3.00E+00,2.38E+00,654,9.09E-01,-1.90E-02,-1.67E-02
3.00E+00,2.41E+00,691,9.03E-01,-1.64E-02,-1.81E-02
3.00E+00,2.43E+00,611,8.93E-01,-1.46E-02,-1.71E-02
3.00E+00,2.46E+00,626,8.84E-01,-1.54E-02,-2.17E-02
3.00E+00,2.48E+00,623,8.79E-01,-1.64E-02,-1.83E-02
3.00E+00,2.51E+00,594,8.70E-01,-1.40E-02,-1.65E-02
3.00E+00,2.53E+00,598,8.64E-01,-1.23E-02,-1.45E-02
3.00E+00,2.55E+00,593,8.51E-01,-1.36E-02,-1.77E-02
3.00E+00,2.58E+00,592,8.40E-01,-1.24E-02,-1.55E-02
3.00E+00,2.60E+00,587,8.37E-01,-1.15E-02,-1.90E-02
3.00E+00,2.63E+00,601,8.23E-01,-1.16E-02,-1.39E-02
3.00E+00,2.65E+00,534,8.15E-01,-1.13E-02,-1.94E-02
3.00E+00,2.68E+00,576,7.99E-01,-1.40E-02,-1.89E-02
3.00E+00,2.70E+00,572,7.81E-01,-1.14E-02,-1.71E-02
3.00E+00,2.73E+00,618,7.74E-01,-1.42E-02,-1.98E-02
3.00E+00,2.75E+00,558,7.59E-01,-1.12E-02,-1.56E-02
3.00E+00,2.78E+00,603,7.44E-01,-1.05E-02,-1.94E-02
3.00E+00,2.80E+00,584,7.31E-01,-6.54E-03,-1.02E-02
3.00E+00,2.82E+00,600,7.21E-01,-5.48E-03,-1.50E-02
3.00E+00,2.85E+00,611,6.86E-01,-5.44E-03,-1.57E-02
3.00E+00,2.87E+00,564,6.61E-01,-4.97E-03,-1.80E-02
3.00E+00,2.90E+00,560,6.02E-01,-5.11E-03,-1.30E-02
3.00E+00,2.92E+00,523,5.11E-01,-1.29E-03,-1.17E-02
3.00E+00,2.95E+00,538,3.46E-01,5.29E-05,-1.25E-02
3.00E+00,2.96E+00,148,1.87E-01,-1.28E-03,-8.13E-03
4.02E+00,2.03E-02,27,-4.35E-02,1.51E-04,-3.79E-03
4.02E+00,3.83E-02,197,-9.45E-02,6.76E-04,-6.72E-03
4.02E+00,6.16E-02,213,-1.38E-01,-3.10E-03,-3.19E-02
4.02E+00,8.62E-02,188,-1.60E-01,2.47E-03,-5.01E-03
4.02E+00,1.11E-01,153,-1.50E-01,3.04E-03,-2.23E-02
4.02E+00,1.35E-01,186,-1.51E-01,2.49E-03,-5.94E-03
4.02E+00,1.59E-01,154,-1.52E-01,-1.44E-02,-2.51E-02
4.02E+00,1.84E-01,192,-1.37E-01,-7.97E-03,-4.92E-03
4.02E+00,2.07E-01,176,-1.21E-01,4.73E-03,-3.70E-02
4.02E+00,2.32E-01,187,-1.33E-01,5.23E-03,-2.88E-02
4.02E+00,2.57E-01,212,-1.24E-01,-8.04E-03,-8.31E-03
4.02E+00,2.81E-01,212,-1.07E-01,-1.01E-02,-2.07E-02
4.02E+00,3.06E-01,223,-9.11E-02,-2.07E-03,-2.06E-02
4.02E+00,3.31E-01,207,-7.69E-02,-2.61E-02,-3.42E-02
4.02E+00,3.55E-01,256,-4.30E-02,-3.26E-02,-1.06E-02
4.02E+00,3.79E-01,200,-3.08E-02,-2.67E-02,-2.01E-02
4.02E+00,4.03E-01,285,-7.31E-03,-4.17E-02,-1.54E-02
4.02E+00,4.28E-01,203,-1.81E-02,-2.53E-02,-1.73E-02
4.02E+00,4.52E-01,233,1.50E-04,-2.53E-02,-1.17E-02
4.02E+00,4.77E-01,199,3.92E-04,-3.03E-02,-4.09E-03
4.02E+00,5.02E-01,228,6.23E-02,-4.37E-02,-1.03E-02
4.02E+00,5.25E-01,240,3.38E-02,-1.95E-02,-1.53E-02
4.02E+00,5.50E-01,246,9.09E-02,-4.14E-02,-1.82E-02
4.02E+00,5.74E-01,241,1.01E-01,-3.48E-02,-2.18E-02
4.02E+00,5.98E-01,248,1.28E-01,-2.69E-02,-8.82E-03
4.02E+00,6.23E-01,267,1.58E-01,-5.32E-02,1.81E-02
4.02E+00,6.48E-01,237,1.97E-01,-7.17E-02,-1.90E-02
4.02E+00,6.72E-01,229,1.88E-01,-4.01E-02,-8.07E-03
4.02E+00,6.97E-01,211,2.02E-01,-4.91E-02,-2.12E-02
4.02E+00,7.21E-01,224,2.63E-01,-5.14E-02,-1.97E-02
4.02E+00,7.47E-01,217,2.76E-01,-6.15E-02,-1.31E-02
4.02E+00,7.71E-01,262,2.91E-01,-5.37E-02,-5.57E-03
4.02E+00,7.95E-01,237,3.46E-01,-7.38E-02,-9.97E-03
4.02E+00,8.19E-01,244,3.54E-01,-5.78E-02,-1.74E-02
4.02E+00,8.44E-01,294,3.74E-01,-5.33E-02,-2.38E-02
4.02E+00,8.68E-01,306,3.96E-01,-5.19E-02,-8.49E-03
4.02E+00,8.93E-01,280,4.62E-01,-7.61E-02,-2.83E-02
4.02E+00,9.17E-01,321,4.58E-01,-6.40E-02,-1.83E-02
4.02E+00,9.41E-01,306,4.79E-01,-6.32E-02,-1.45E-02
4.02E+00,9.66E-01,360,5.22E-01,-6.19E-02,-2.08E-02
4.02E+00,9.91E-01,316,5.35E-01,-7.32E-02,-2.05E-02
4.02E+00,1.01E+00,344,5.77E-01,-5.72E-02,-4.69E-05
4.02E+00,1.04E+00,383,5.99E-01,-7.35E-02,-2.36E-02
4.02E+00,1.06E+00,386,6.17E-01,-7.21E-02,-1.27E-02
4.02E+00,1.09E+00,387,6.54E-01,-6.03E-02,-4.16E-03
4.02E+00,1.11E+00,413,6.66E-01,-5.96E-02,-1.01E-02
4.02E+00,1.14E+00,446,6.94E-01,-6.78E-02,-1.47E-02
4.02E+00,1.16E+00,472,7.08E-01,-7.09E-02,-1.44E-02
4.02E+00,1.19E+00,460,7.41E-01,-6.52E-02,-4.68E-03
4.02E+00,1.21E+00,490,7.53E-01,-6.71E-02,-1.72E-02
4.02E+00,1.23E+00,562,7.71E-01,-6.46E-02,-2.11E-02
4.02E+00,1.26E+00,504,7.82E-01,-6.41E-02,-1.91E-02
4.02E+00,1.28E+00,549,7.99E-01,-6.11E-02,-1.42E-02
4.02E+00,1.31E+00,596,8.22E-01,-5.80E-02,-1.38E-02
4.02E+00,1.33E+00,618,8.24E-01,-5.68E-02,-1.82E-02
4.02E+00,1.36E+00,601,8.42E-01,-5.54E-02,-1.69E-02
4.02E+00,1.38E+00,606,8.54E-01,-5.60E-02,-1.59E-02
4.02E+00,1.41E+00,680,8.64E-01,-5.44E-02,-1.79E-02
4.02E+00,1.43E+00,731,8.72E-01,-4.96E-02,-1.62E-02
4.02E+00,1.45E+00,711,8.75E-01,-4.68E-02,-1.52E-02
4.02E+00,1.48E+00,696,8.89E-01,-5.12E-02,-1.36E-02
4.02E+00,1.50E+00,699,8.95E-01,-4.77E-02,-2.05E-02
4.02E+00,1.53E+00,755,9.02E-01,-4.84E-02,-1.70E-02
4.02E+00,1.55E+00,738,9.06E-01,-4.51E-02,-1.69E-02
4.02E+00,1.58E+00,771,9.13E-01,-4.63E-02,-1.72E-02
4.02E+00,1.60E+00,744,9.20E-01,-4.81E-02,-1.41E-02
4.02E+00,1.63E+00,738,9.20E-01,-4.29E-02,-1.54E-02
4.02E+00,1.65E+00,790,9.28E-01,-4.53E-02,-1.83E-02
4.02E+00,1.67E+00,746,9.30E-01,-4.35E-02,-1.54E-02
4.02E+00,1.70E+00,768,9.34E-01,-4.36E-02,-1.74E-02
4.02E+00,1.72E+00,745,9.41E-01,-4.31E-02,-1.57E-02
4.02E+00,1.75E+00,774,9.40E-01,-4.34E-02,-1.84E-02
4.02E+00,1.77E+00,767,9.41E-01,-4.15E-02,-2.00E-02
4.02E+00,1.80E+00,782,9.50E-01,-4.14E-02,-1.62E-02
4.02E+00,1.82E+00,768,9.48E-01,-4.09E-02,-2.04E-02
4.02E+00,1.85E+00,703,9.50E-01,-3.93E-02,-1.57E-02
4.02E+00,1.87E+00,777,9.49E-01,-3.99E-02,-1.67E-02
4.02E+00,1.90E+00,808,9.51E-01,-3.80E-02,-1.57E-02
4.02E+00,1.92E+00,767,9.50E-01,-3.66E-02,-1.79E-02
4.02E+00,1.94E+00,734,9.50E-01,-3.66E-02,-1.91E-02
4.02E+00,1.97E+00,757,9.48E-01,-3.69E-02,-2.05E-02
4.02E+00,1.99E+00,739,9.51E-01,-3.53E-02,-1.88E-02
4.02E+00,2.02E+00,742,9.45E-01,-3.21E-02,-1.96E-02
4.02E+00,2.04E+00,696,9.45E-01,-3.82E-02,-1.89E-02
4.02E+00,2.07E+00,715,9.42E-01,-3.25E-02,-1.65E-02
4.02E+00,2.09E+00,663,9.35E-01,-3.23E-02,-1.85E-02
4.02E+00,2.11E+00,666,9.33E-01,-3.30E-02,-1.85E-02
4.02E+00,2.14E+00,596,9.29E-01,-3.07E-02,-1.90E-02
4.02E+00,2.16E+00,616,9.28E-01,-3.12E-02,-1.87E-02
4.02E+00,2.19E+00,656,9.23E-01,-3.06E-02,-1.70E-02
4.02E+00,2.21E+00,616,9.15E-01,-2.90E-02,-1.98E-02
4.02E+00,2.24E+00,707,9.16E-01,-2.79E-02,-1.94E-02
4.02E+00,2.26E+00,652,9.04E-01,-2.81E-02,-1.79E-02
4.02E+00,2.29E+00,627,8.96E-01,-2.93E-02,-1.86E-02
4.02E+00,2.31E+00,658,8.99E-01,-2.39E-02,-2.05E-02
4.02E+00,2.34E+00,638,8.89E-01,-2.25E-02,-1.73E-02
4.02E+00,2.36E+00,637,8.83E-01,-2.60E-02,-1.70E-02
4.02E+00,2.38E+00,629,8.73E-01,-2.54E-02,-1.80E-02
4.02E+00,2.41E+00,647,8.71E-01,-2.23E-02,-1.96E-02
4.02E+00,2.43E+00,629,8.61E-01,-2.51E-02,-1.58E-02
4.02E+00,2.46E+00,644,8.53E-01,-2.14E-02,-2.01E-02
4.02E+00,2.48E+00,682,8.45E-01,-2.00E-02,-1.70E-02
4.02E+00,2.51E+00,681,8.34E-01,-2.02E-02,-1.73E-02
4.02E+00,2.53E+00,602,8.27E-01,-1.60E-02,-2.04E-02
4.02E+00,2.56E+00,606,8.16E-01,-2.15E-02,-2.39E-02
4.02E+00,2.58E+00,538,8.10E-01,-1.52E-02,-1.79E-02
4.02E+00,2.60E+00,597,7.96E-01,-1.62E-02,-1.96E-02
4.02E+00,2.63E+00,596,7.93E-01,-1.42E-02,-1.67E-02
4.02E+00,2.65E+00,533,7.81E-01,-1.27E-02,-1.84E-02
4.02E+00,2.68E+00,571,7.68E-01,-1.08E-02,-1.64E-02
4.02E+00,2.70E+00,545,7.54E-01,-1.85E-02,-1.87E-02
4.02E+00,2.73E+00,553,7.45E-01,-1.16E-02,-1.99E-02
4.02E+00,2.75E+00,487,7.21E-01,-1.53E-02,-1.48E-02
4.02E+00,2.78E+00,482,7.15E-01,-1.26E-02,-1.75E-02
4.02E+00,2.80E+00,551,6.91E-01,-1.01E-02,-1.93E-02
4.02E+00,2.82E+00,511,6.69E-01,-9.42E-03,-1.63E-02
4.02E+00,2.85E+00,542,6.51E-01,-6.69E-03,-1.45E-02
4.02E+00,2.87E+00,497,6.09E-01,-5.81E-03,-1.63E-02
4.02E+00,2.90E+00,487,5.49E-01,-1.23E-03,-1.67E-02
4.02E+00,2.92E+00,466,4.64E-01,-3.68E-03,-1.40E-02
4.02E+00,2.95E+00,438,3.04E-01,5.45E-04,-8.28E-03
4.02E+00,2.96E+00,141,1.52E-01,-2.31E-03,-5.69E-03
5.00E+00,2.13E-02,55,-2.54E-02,9.47E-04,-1.17E-02
5.00E+00,3.75E-02,361,-5.17E-02,6.92E-04,-5.88E-03
5.00E+00,6.03E-02,325,-7.26E-02,-7.83E-03,-1.43E-02
5.00E+00,8.59E-02,295,-8.48E-02,-1.85E-03,-2.50E-02
5.00E+00,1.10E-01,312,-8.22E-02,-4.70E-03,-2.45E-02
5.00E+00,1.35E-01,287,-4.88E-02,-7.01E-03,-2.06E-02
5.00E+00,1.58E-01,289,-5.35E-02,-1.24E-02,-1.95E-03
5.00E+00,1.83E-01,291,-4.66E-02,-2.02E-02,-1.60E-02
5.00E+00,2.08E-01,284,-2.95E-02,-1.59E-02,-5.55E-03
5.00E+00,2.33E-01,251,-2.54E-02,-2.52E-02,-1.59E-02
5.00E+00,2.56E-01,241,-8.22E-03,-2.96E-02,-3.42E-02
5.00E+00,2.82E-01,255,6.14E-03,-2.89E-02,-1.39E-02
5.00E+00,3.06E-01,307,5.48E-03,-2.44E-02,-1.95E-02
5.00E+00,3.29E-01,244,2.61E-02,-3.50E-02,-1.81E-02
5.00E+00,3.54E-01,239,3.21E-02,-3.19E-02,-1.35E-02
5.00E+00,3.79E-01,253,3.71E-02,-3.88E-02,-3.42E-02
5.00E+00,4.04E-01,245,7.56E-02,-3.30E-02,-1.93E-02
5.00E+00,4.28E-01,263,6.83E-02,-2.48E-02,-8.10E-03
5.00E+00,4.52E-01,290,9.54E-02,-3.14E-02,-2.26E-02
5.00E+00,4.76E-01,244,7.97E-02,-2.39E-02,-3.20E-02
5.00E+00,5.02E-01,255,1.26E-01,-3.04E-02,-1.55E-02
5.00E+00,5.25E-01,225,1.04E-01,-1.99E-02,-2.29E-02
5.00E+00,5.51E-01,220,1.45E-01,-4.17E-02,-2.40E-02
5.00E+00,5.74E-01,234,1.72E-01,-4.20E-02,1.13E-03
5.00E+00,5.98E-01,269,1.71E-01,-3.25E-02,-1.30E-02
5.00E+00,6.23E-01,289,2.22E-01,-5.07E-02,-7.05E-03
5.00E+00,6.48E-01,225,2.35E-01,-5.65E-02,-3.97E-02
5.00E+00,6.74E-01,214,2.58E-01,-6.53E-02,-2.40E-02
5.00E+00,6.97E-01,224,2.64E-01,-5.57E-02,-1.65E-02
5.00E+00,7.21E-01,227,2.94E-01,-4.33E-02,-9.38E-03
5.00E+00,7.46E-01,192,3.20E-01,-6.46E-02,-2.13E-02
5.00E+00,7.71E-01,200,3.26E-01,-5.74E-02,-2.81E-02
5.00E+00,7.95E-01,168,3.28E-01,-4.92E-02,1.13E-02
5.00E+00,8.19E-01,195,3.96E-01,-5.40E-02,-2.88E-02
5.00E+00,8.44E-01,217,4.19E-01,-5.72E-02,-1.49E-02
5.00E+00,8.67E-01,233,4.35E-01,-7.74E-02,-3.18E-02
5.00E+00,8.93E-01,215,4.35E-01,-6.75E-02,9.03E-03
5.00E+00,9.17E-01,226,4.78E-01,-7.71E-02,-3.13E-03
5.00E+00,9.42E-01,209,5.04E-01,-7.64E-02,-1.93E-02
5.00E+00,9.66E-01,219,5.21E-01,-5.96E-02,-2.30E-02
5.00E+00,9.90E-01,230,5.32E-01,-7.34E-02,-8.84E-03
5.00E+00,1.01E+00,243,5.70E-01,-6.86E-02,-1.60E-02
5.00E+00,1.04E+00,231,5.92E-01,-6.43E-02,1.61E-03
5.00E+00,1.06E+00,221,6.13E-01,-6.91E-02,-1.53E-02
5.00E+00,1.09E+00,258,6.39E-01,-5.99E-02,-2.02E-02
5.00E+00,1.11E+00,214,6.47E-01,-6.84E-02,-1.54E-02
5.00E+00,1.14E+00,276,6.77E-01,-5.94E-02,-1.70E-02
5.00E+00,1.16E+00,250,7.10E-01,-6.13E-02,-2.01E-02
5.00E+00,1.19E+00,301,7.14E-01,-6.92E-02,2.88E-04
5.00E+00,1.21E+00,268,7.21E-01,-6.30E-02,-1.09E-02
5.00E+00,1.23E+00,275,7.68E-01,-7.57E-02,-2.19E-02
5.00E+00,1.26E+00,275,7.67E-01,-6.44E-02,-1.11E-02
5.00E+00,1.28E+00,288,7.81E-01,-5.62E-02,-1.81E-02
5.00E+00,1.31E+00,311,7.93E-01,-6.29E-02,-2.10E-02
5.00E+00,1.33E+00,311,7.99E-01,-6.28E-02,-1.78E-02
5.00E+00,1.36E+00,301,8.23E-01,-6.11E-02,-1.33E-02
5.00E+00,1.38E+00,356,8.26E-01,-5.88E-02,-1.31E-02
5.00E+00,1.40E+00,345,8.34E-01,-5.45E-02,-1.50E-02
5.00E+00,1.43E+00,341,8.45E-01,-5.67E-02,-6.99E-03
5.00E+00,1.46E+00,310,8.60E-01,-5.21E-02,-1.54E-02
5.00E+00,1.48E+00,314,8.61E-01,-5.37E-02,-1.76E-02
5.00E+00,1.50E+00,373,8.68E-01,-5.25E-02,-1.58E-02
5.00E+00,1.53E+00,379,8.80E-01,-5.05E-02,-1.90E-02
5.00E+00,1.55E+00,373,8.85E-01,-5.70E-02,-1.69E-02
5.00E+00,1.58E+00,393,8.90E-01,-5.01E-02,-1.36E-02
5.00E+00,1.60E+00,386,8.94E-01,-5.22E-02,-2.12E-02
5.00E+00,1.63E+00,358,8.97E-01,-4.85E-02,-1.84E-02
5.00E+00,1.65E+00,375,8.96E-01,-4.31E-02,-1.23E-02
5.00E+00,1.67E+00,350,9.04E-01,-4.63E-02,-1.70E-02
5.00E+00,1.70E+00,387,9.11E-01,-4.70E-02,-1.74E-02
5.00E+00,1.72E+00,387,9.09E-01,-4.68E-02,-1.88E-02
5.00E+00,1.75E+00,387,9.13E-01,-4.34E-02,-1.54E-02
5.00E+00,1.77E+00,383,9.16E-01,-4.55E-02,-1.72E-02
5.00E+00,1.80E+00,353,9.18E-01,-4.59E-02,-1.79E-02
5.00E+00,1.82E+00,343,9.16E-01,-4.36E-02,-1.78E-02
5.00E+00,1.85E+00,401,9.16E-01,-4.40E-02,-1.86E-02
5.00E+00,1.87E+00,447,9.21E-01,-3.97E-02,-1.82E-02
5.00E+00,1.90E+00,398,9.20E-01,-4.02E-02,-1.73E-02
5.00E+00,1.92E+00,360,9.18E-01,-3.85E-02,-1.63E-02
5.00E+00,1.94E+00,372,9.22E-01,-3.64E-02,-2.18E-02
5.00E+00,1.97E+00,415,9.15E-01,-3.92E-02,-2.01E-02
5.00E+00,1.99E+00,395,9.15E-01,-3.90E-02,-2.07E-02
5.00E+00,2.02E+00,399,9.12E-01,-3.79E-02,-1.73E-02
5.00E+00,2.04E+00,391,9.12E-01,-3.70E-02,-1.99E-02
5.00E+00,2.07E+00,402,9.09E-01,-3.88E-02,-1.61E-02
5.00E+00,2.09E+00,387,9.00E-01,-3.54E-02,-1.91E-02
5.00E+00,2.12E+00,417,8.97E-01,-3.36E-02,-1.79E-02
5.00E+00,2.14E+00,376,8.93E-01,-3.19E-02,-2.03E-02
5.00E+00,2.16E+00,405,8.85E-01,-3.10E-02,-1.93E-02
5.00E+00,2.19E+00,368,8.84E-01,-2.77E-02,-1.73E-02
5.00E+00,2.21E+00,356,8.82E-01,-2.77E-02,-1.65E-02
5.00E+00,2.24E+00,410,8.77E-01,-2.70E-02,-1.67E-02
5.00E+00,2.26E+00,371,8.64E-01,-2.96E-02,-1.75E-02
5.00E+00,2.29E+00,352,8.54E-01,-3.11E-02,-1.66E-02
5.00E+00,2.31E+00,346,8.56E-01,-2.82E-02,-2.02E-02
5.00E+00,2.34E+00,364,8.49E-01,-2.88E-02,-2.01E-02
5.00E+00,2.36E+00,380,8.45E-01,-2.69E-02,-1.50E-02
5.00E+00,2.38E+00,299,8.40E-01,-1.83E-02,-2.19E-02
5.00E+00,2.41E+00,315,8.23E-01,-2.62E-02,-2.06E-02
5.00E+00,2.43E+00,314,8.20E-01,-2.39E-02,-1.78E-02
5.00E+00,2.46E+00,289,8.09E-01,-2.74E-02,-2.51E-02
5.00E+00,2.48E+00,306,8.03E-01,-2.54E-02,-2.14E-02
5.00E+00,2.51E+00,264,7.99E-01,-2.23E-02,-1.72E-02
5.00E+00,2.53E+00,272,7.89E-01,-1.98E-02,-2.05E-02
5.00E+00,2.56E+00,270,7.86E-01,-1.12E-02,-1.07E-02
5.00E+00,2.58E+00,280,7.63E-01,-2.93E-02,-1.70E-02
5.00E+00,2.60E+00,283,7.54E-01,-1.77E-02,-2.03E-02
5.00E+00,2.63E+00,280,7.60E-01,-1.54E-02,-1.86E-02
5.00E+00,2.65E+00,267,7.44E-01,-1.08E-02,-1.65E-02
5.00E+00,2.68E+00,261,7.36E-01,-1.50E-02,-2.13E-02
5.00E+00,2.70E+00,259,7.28E-01,-6.71E-03,-1.12E-02
5.00E+00,2.73E+00,256,6.92E-01,-1.43E-02,-1.40E-02
5.00E+00,2.75E+00,266,6.96E-01,-6.33E-03,-7.55E-03
5.00E+00,2.78E+00,275,6.68E-01,-1.21E-02,-1.31E-02
5.00E+00,2.80E+00,297,6.62E-01,-9.39E-03,-1.56E-02
5.00E+00,2.82E+00,289,6.31E-01,-4.57E-03,-2.10E-02
5.00E+00,2.85E+00,278,6.16E-01,-4.81E-03,-1.54E-02
5.00E+00,2.87E+00,268,5.77E-01,-4.95E-03,-2.34E-02
5.00E+00,2.90E+00,261,5.10E-01,-6.40E-03,-1.96E-02
5.00E+00,2.92E+00,279,4.36E-01,-1.06E-03,-9.53E-03
5.00E+00,2.95E+00,297,2.91E-01,-4.00E-03,-1.42E-02
5.00E+00,2.96E+00,83,9.22E-02,1.15E-02,-9.59E-03
6.02E+00,2.10E-02,51,1.42E-03,-1.67E-03,-2.82E-02
6.02E+00,3.59E-02,267,-8.25E-05,-1.24E-03,-2.47E-02
6.02E+00,6.14E-02,283,-7.72E-03,7.42E-04,-3.00E-02
6.02E+00,8.52E-02,242,2.47E-03,-6.10E-03,-2.62E-02
6.02E+00,1.11E-01,259,1.71E-02,-1.29E-02,-6.62E-03
6.02E+00,1.35E-01,250,2.39E-02,4.22E-04,-2.69E-02
6.02E+00,1.59E-01,238,3.61E-02,-1.12E-02,-9.99E-03
6.02E+00,1.83E-01,249,4.07E-02,-1.98E-02,-2.19E-02
6.02E+00,2.08E-01,275,6.58E-02,-2.37E-02,-3.30E-02
6.02E+00,2.32E-01,289,6.21E-02,-1.46E-02,-2.86E-02
6.02E+00,2.56E-01,245,6.48E-02,-8.01E-03,-1.82E-02
6.02E+00,2.82E-01,249,7.22E-02,-2.68E-02,-1.86E-02
6.02E+00,3.06E-01,247,1.00E-01,-3.32E-02,-3.01E-02
6.02E+00,3.30E-01,255,1.06E-01,-4.68E-02,-1.85E-02
6.02E+00,3.55E-01,230,1.33E-01,-2.37E-02,-2.05E-02
6.02E+00,3.78E-01,284,1.31E-01,-3.19E-02,-9.38E-03
6.02E+00,4.03E-01,262,1.43E-01,-3.74E-02,-5.75E-03
6.02E+00,4.28E-01,266,1.63E-01,-3.75E-02,-2.24E-02
6.02E+00,4.53E-01,293,1.67E-01,-4.24E-02,-1.77E-02
6.02E+00,4.77E-01,285,1.87E-01,-3.13E-02,-5.06E-03
6.02E+00,5.02E-01,288,1.93E-01,-3.19E-02,-1.34E-02
6.02E+00,5.25E-01,254,2.13E-01,-4.16E-02,-1.72E-02
6.02E+00,5.51E-01,289,2.19E-01,-3.11E-02,-1.95E-02
6.02E+00,5.75E-01,326,2.48E-01,-4.21E-02,-5.05E-03
6.02E+00,5.98E-01,306,2.58E-01,-3.12E-02,9.20E-04
6.02E+00,6.23E-01,331,2.82E-01,-3.57E-02,-1.25E-02
6.02E+00,6.48E-01,318,2.98E-01,-5.36E-02,-1.71E-02
6.02E+00,6.73E-01,311,3.22E-01,-5.41E-02,-1.35E-02
6.02E+00,6.97E-01,284,3.49E-01,-7.21E-02,-7.27E-03
6.02E+00,7.21E-01,314,3.49E-01,-5.26E-02,6.11E-03
6.02E+00,7.46E-01,345,3.84E-01,-5.93E-02,-1.90E-02
6.02E+00,7.70E-01,348,3.78E-01,-6.06E-02,-1.42E-02
6.02E+00,7.95E-01,327,4.06E-01,-6.40E-02,-3.10E-02
6.02E+00,8.19E-01,365,4.34E-01,-5.26E-02,-1.05E-02
6.02E+00,8.43E-01,368,4.34E-01,-5.49E-02,-1.44E-02
6.02E+00,8.68E-01,369,4.56E-01,-6.03E-02,-1.61E-02
6.02E+00,8.93E-01,340,4.81E-01,-6.51E-02,-1.82E-02
6.02E+00,9.17E-01,391,5.10E-01,-6.74E-02,-1.80E-02
6.02E+00,9.41E-01,465,5.23E-01,-6.31E-02,-2.67E-03
6.02E+00,9.66E-01,433,5.36E-01,-5.94E-02,-1.64E-02
6.02E+00,9.90E-01,413,5.69E-01,-5.92E-02,-4.63E-03
6.02E+00,1.02E+00,425,5.76E-01,-5.73E-02,-1.77E-02
6.02E+00,1.04E+00,507,6.02E-01,-5.75E-02,-5.90E-03
6.02E+00,1.06E+00,471,6.20E-01,-6.13E-02,-4.52E-03
6.02E+00,1.09E+00,501,6.36E-01,-5.77E-02,-9.95E-03
6.02E+00,1.11E+00,516,6.47E-01,-5.95E-02,-1.37E-02
6.02E+00,1.14E+00,545,6.71E-01,-6.08E-02,-1.23E-03
6.02E+00,1.16E+00,621,6.82E-01,-5.62E-02,-4.37E-03
6.02E+00,1.19E+00,580,7.04E-01,-5.87E-02,-4.16E-03
6.02E+00,1.21E+00,619,7.18E-01,-5.94E-02,-8.99E-03
6.02E+00,1.23E+00,649,7.38E-01,-5.61E-02,-7.07E-03
6.02E+00,1.26E+00,651,7.48E-01,-6.53E-02,-1.02E-02
6.02E+00,1.28E+00,730,7.56E-01,-5.49E-02,-1.51E-02
6.02E+00,1.31E+00,713,7.78E-01,-5.66E-02,-1.75E-02
6.02E+00,1.33E+00,759,7.82E-01,-5.46E-02,-1.90E-02
6.02E+00,1.36E+00,770,7.92E-01,-5.34E-02,-1.28E-02
6.02E+00,1.38E+00,808,8.04E-01,-5.18E-02,-1.36E-02
6.02E+00,1.41E+00,896,8.07E-01,-5.12E-02,-1.21E-02
6.02E+00,1.43E+00,870,8.28E-01,-5.01E-02,-1.52E-02
6.02E+00,1.46E+00,893,8.28E-01,-4.68E-02,-1.56E-02
6.02E+00,1.48E+00,884,8.36E-01,-4.74E-02,-1.58E-02
6.02E+00,1.50E+00,921,8.43E-01,-4.61E-02,-1.69E-02
6.02E+00,1.53E+00,861,8.46E-01,-4.84E-02,-1.59E-02
6.02E+00,1.55E+00,900,8.52E-01,-4.69E-02,-1.57E-02
6.02E+00,1.58E+00,977,8.57E-01,-4.16E-02,-1.73E-02
6.02E+00,1.60E+00,934,8.65E-01,-4.52E-02,-1.64E-02
6.02E+00,1.63E+00,974,8.63E-01,-4.40E-02,-1.66E-02
6.02E+00,1.65E+00,929,8.70E-01,-4.15E-02,-1.62E-02
6.02E+00,1.67E+00,939,8.75E-01,-4.11E-02,-1.97E-02
6.02E+00,1.70E+00,1041,8.78E-01,-4.35E-02,-1.68E-02
6.02E+00,1.72E+00,1003,8.81E-01,-4.04E-02,-1.69E-02
6.02E+00,1.75E+00,976,8.82E-01,-4.02E-02,-1.70E-02
6.02E+00,1.77E+00,988,8.81E-01,-3.94E-02,-1.81E-02
6.02E+00,1.80E+00,963,8.83E-01,-4.09E-02,-1.81E-02
6.02E+00,1.82E+00,945,8.83E-01,-3.62E-02,-1.93E-02
6.02E+00,1.85E+00,967,8.82E-01,-3.84E-02,-1.66E-02
6.02E+00,1.87E+00,944,8.82E-01,-3.83E-02,-1.75E-02
6.02E+00,1.89E+00,941,8.82E-01,-3.54E-02,-1.92E-02
6.02E+00,1.92E+00,919,8.78E-01,-3.61E-02,-1.78E-02
6.02E+00,1.94E+00,890,8.77E-01,-3.49E-02,-1.57E-02
6.02E+00,1.97E+00,948,8.79E-01,-3.46E-02,-1.93E-02
6.02E+00,1.99E+00,870,8.77E-01,-3.42E-02,-1.82E-02
6.02E+00,2.02E+00,967,8.71E-01,-3.09E-02,-1.77E-02
6.02E+00,2.04E+00,820,8.64E-01,-3.59E-02,-1.73E-02
6.02E+00,2.07E+00,890,8.67E-01,-2.97E-02,-1.61E-02
6.02E+00,2.09E+00,812,8.62E-01,-3.00E-02,-2.03E-02
6.02E+00,2.12E+00,786,8.58E-01,-3.11E-02,-1.87E-02
6.02E+00,2.14E+00,732,8.50E-01,-2.87E-02,-1.77E-02
6.02E+00,2.16E+00,703,8.45E-01,-3.05E-02,-2.01E-02
6.02E+00,2.19E+00,664,8.43E-01,-2.86E-02,-1.83E-02
6.02E+00,2.21E+00,649,8.37E-01,-2.76E-02,-1.88E-02
6.02E+00,2.24E+00,611,8.33E-01,-2.77E-02,-1.90E-02
6.02E+00,2.26E+00,634,8.24E-01,-2.67E-02,-1.51E-02
6.02E+00,2.29E+00,584,8.14E-01,-2.57E-02,-1.72E-02
6.02E+00,2.31E+00,541,8.13E-01,-2.42E-02,-2.30E-02
6.02E+00,2.33E+00,534,8.09E-01,-2.41E-02,-1.78E-02
6.02E+00,2.36E+00,555,8.03E-01,-2.33E-02,-2.36E-02
6.02E+00,2.38E+00,536,7.96E-01,-2.17E-02,-1.98E-02
6.02E+00,2.41E+00,492,7.86E-01,-1.66E-02,-1.36E-02
6.02E+00,2.43E+00,478,7.82E-01,-1.98E-02,-1.57E-02
6.02E+00,2.46E+00,527,7.71E-01,-2.04E-02,-1.99E-02
6.02E+00,2.48E+00,507,7.58E-01,-2.18E-02,-1.71E-02
6.02E+00,2.51E+00,499,7.41E-01,-2.39E-02,-1.89E-02
6.02E+00,2.53E+00,538,7.45E-01,-1.47E-02,-2.20E-02
6.02E+00,2.56E+00,517,7.36E-01,-1.41E-02,-1.66E-02
6.02E+00,2.58E+00,535,7.17E-01,-1.79E-02,-1.81E-02
6.02E+00,2.60E+00,539,7.19E-01,-1.42E-02,-2.44E-02
6.02E+00,2.63E+00,546,7.06E-01,-1.48E-02,-1.88E-02
6.02E+00,2.65E+00,533,6.82E-01,-1.59E-02,-1.78E-02
6.02E+00,2.68E+00,539,6.72E-01,-1.16E-02,-1.98E-02
6.02E+00,2.70E+00,571,6.59E-01,-1.00E-02,-1.80E-02
6.02E+00,2.73E+00,566,6.50E-01,-8.28E-03,-2.01E-02
6.02E+00,2.75E+00,619,6.43E-01,2.18E-03,-1.58E-02
6.02E+00,2.77E+00,569,6.23E-01,-6.94E-03,-9.50E-03
6.02E+00,2.80E+00,638,5.93E-01,-7.31E-03,-2.15E-02
6.02E+00,2.82E+00,632,5.74E-01,-2.81E-03,-1.19E-02
6.02E+00,2.85E+00,620,5.53E-01,-4.73E-03,-1.78E-02
6.02E+00,2.87E+00,622,5.12E-01,-6.30E-03,-7.11E-03
6.02E+00,2.90E+00,620,4.78E-01,1.04E-03,-1.58E-02
6.02E+00,2.92E+00,598,4.07E-01,5.62E-05,-1.91E-02
6.02E+00,2.95E+00,648,2.59E-01,9.66E-04,-1.26E-02
6.02E+00,2.96E+00,233,1.39E-01,-8.26E-04,-4.75E-03
7.00E+00,2.14E-02,44,9.83E-03,-1.32E-03,-2.78E-03
7.00E+00,3.72E-02,316,2.50E-02,-3.40E-03,-4.05E-03
7.00E+00,6.05E-02,302,5.99E-02,-5.61E-03,-3.88E-03
7.00E+00,8.63E-02,297,7.87E-02,-1.34E-02,-3.71E-03
7.00E+00,1.10E-01,345,9.13E-02,-7.57E-03,-9.72E-03
7.00E+00,1.35E-01,347,9.87E-02,-1.18E-03,-2.03E-02
7.00E+00,1.59E-01,372,1.22E-01,-9.59E-03,-7.92E-03
7.00E+00,1.83E-01,378,1.16E-01,-5.73E-03,-5.68E-05
7.00E+00,2.08E-01,409,1.00E-01,-1.12E-02,-1.66E-02
7.00E+00,2.32E-01,422,1.19E-01,-1.24E-02,-2.30E-02
7.00E+00,2.57E-01,442,1.41E-01,-1.12E-02,-2.30E-02
7.00E+00,2.82E-01,428,1.54E-01,-1.98E-02,-1.93E-02
7.00E+00,3.06E-01,431,1.69E-01,-1.68E-02,-1.37E-02
7.00E+00,3.30E-01,400,1.77E-01,-2.60E-02,-1.66E-02
7.00E+00,3.55E-01,417,1.82E-01,-2.00E-02,-2.90E-02
7.00E+00,3.79E-01,432,1.93E-01,-2.12E-02,-2.40E-02
7.00E+00,4.03E-01,433,2.00E-01,-2.17E-02,-1.76E-02
7.00E+00,4.28E-01,496,2.19E-01,-2.91E-02,-9.77E-03
7.00E+00,4.52E-01,463,2.47E-01,-4.09E-02,-1.80E-02
7.00E+00,4.76E-01,452,2.43E-01,-4.14E-02,-2.76E-02
7.00E+00,5.01E-01,432,2.64E-01,-5.75E-02,-1.83E-02
7.00E+00,5.26E-01,459,2.55E-01,-2.75E-02,-1.78E-03
7.00E+00,5.50E-01,474,2.75E-01,-4.14E-02,-2.61E-02
7.00E+00,5.75E-01,491,2.91E-01,-3.95E-02,-1.99E-02
7.00E+00,5.99E-01,454,3.23E-01,-4.25E-02,-2.28E-02
7.00E+00,6.23E-01,484,3.24E-01,-4.39E-02,-8.51E-03
7.00E+00,6.48E-01,504,3.29E-01,-4.61E-02,-1.93E-02
7.00E+00,6.72E-01,437,3.45E-01,-4.74E-02,-1.74E-02
7.00E+00,6.97E-01,523,3.56E-01,-3.17E-02,-1.55E-02
7.00E+00,7.21E-01,483,3.76E-01,-4.93E-02,-1.89E-02
7.00E+00,7.46E-01,492,4.02E-01,-4.60E-02,-1.44E-02
7.00E+00,7.70E-01,582,4.11E-01,-4.28E-02,-1.10E-02
7.00E+00,7.95E-01,500,4.34E-01,-4.34E-02,-1.56E-03
7.00E+00,8.19E-01,574,4.47E-01,-4.45E-02,-1.19E-02
7.00E+00,8.43E-01,572,4.53E-01,-3.84E-02,-4.78E-03
7.00E+00,8.68E-01,575,4.81E-01,-4.11E-02,-1.14E-02
7.00E+00,8.93E-01,607,4.82E-01,-4.85E-02,-9.13E-03
7.00E+00,9.17E-01,634,5.07E-01,-4.20E-02,-4.64E-03
7.00E+00,9.41E-01,611,5.45E-01,-5.20E-02,-1.63E-02
7.00E+00,9.66E-01,606,5.45E-01,-4.14E-02,-1.36E-02
7.00E+00,9.90E-01,604,5.70E-01,-5.22E-02,-2.37E-02
7.00E+00,1.01E+00,695,5.84E-01,-5.64E-02,-1.97E-02
7.00E+00,1.04E+00,685,6.06E-01,-5.41E-02,-1.54E-02
7.00E+00,1.06E+00,715,6.25E-01,-5.55E-02,-1.35E-02
7.00E+00,1.09E+00,758,6.33E-01,-5.18E-02,-2.00E-02
7.00E+00,1.11E+00,761,6.52E-01,-5.01E-02,-1.21E-02
7.00E+00,1.14E+00,819,6.70E-01,-5.39E-02,-1.30E-02
7.00E+00,1.16E+00,856,6.81E-01,-5.29E-02,-9.11E-03
7.00E+00,1.19E+00,857,6.94E-01,-4.54E-02,-1.90E-02
7.00E+00,1.21E+00,818,7.10E-01,-5.05E-02,-1.12E-02
7.00E+00,1.23E+00,819,7.23E-01,-4.22E-02,-1.03E-02
7.00E+00,1.26E+00,927,7.28E-01,-4.55E-02,-1.38E-02
7.00E+00,1.28E+00,942,7.51E-01,-4.85E-02,-1.84E-02
7.00E+00,1.31E+00,936,7.59E-01,-4.55E-02,-1.55E-02
7.00E+00,1.33E+00,925,7.67E-01,-4.35E-02,-2.06E-02
7.00E+00,1.36E+00,1064,7.81E-01,-4.59E-02,-1.72E-02
7.00E+00,1.38E+00,977,7.92E-01,-5.00E-02,-1.70E-02
7.00E+00,1.41E+00,1055,7.97E-01,-4.11E-02,-1.53E-02
7.00E+00,1.43E+00,1074,8.06E-01,-4.50E-02,-1.57E-02
7.00E+00,1.45E+00,1018,8.12E-01,-4.49E-02,-1.40E-02
7.00E+00,1.48E+00,1048,8.21E-01,-3.89E-02,-1.43E-02
7.00E+00,1.50E+00,1155,8.28E-01,-4.05E-02,-1.48E-02
7.00E+00,1.53E+00,1126,8.34E-01,-4.09E-02,-1.76E-02
7.00E+00,1.55E+00,1146,8.38E-01,-4.08E-02,-1.47E-02
7.00E+00,1.58E+00,1142,8.40E-01,-3.95E-02,-1.72E-02
7.00E+00,1.60E+00,1189,8.44E-01,-3.96E-02,-1.67E-02
7.00E+00,1.63E+00,1148,8.49E-01,-3.68E-02,-1.54E-02
7.00E+00,1.65E+00,1176,8.52E-01,-4.01E-02,-1.99E-02
7.00E+00,1.67E+00,1231,8.54E-01,-3.81E-02,-1.76E-02
7.00E+00,1.70E+00,1226,8.57E-01,-3.77E-02,-1.73E-02
7.00E+00,1.72E+00,1161,8.57E-01,-3.58E-02,-1.95E-02
7.00E+00,1.75E+00,1227,8.61E-01,-3.54E-02,-1.98E-02
7.00E+00,1.77E+00,1238,8.62E-01,-3.51E-02,-1.99E-02
7.00E+00,1.80E+00,1224,8.61E-01,-3.39E-02,-1.96E-02
7.00E+00,1.82E+00,1224,8.58E-01,-3.19E-02,-1.70E-02
7.00E+00,1.85E+00,1240,8.61E-01,-3.35E-02,-1.81E-02
7.00E+00,1.87E+00,1252,8.59E-01,-3.05E-02,-1.71E-02
7.00E+00,1.90E+00,1194,8.54E-01,-2.86E-02,-1.59E-02
7.00E+00,1.92E+00,1169,8.55E-01,-3.06E-02,-1.82E-02
7.00E+00,1.94E+00,1215,8.51E-01,-3.19E-02,-1.68E-02
7.00E+00,1.97E+00,1177,8.50E-01,-2.87E-02,-1.87E-02
7.00E+00,1.99E+00,1266,8.46E-01,-2.85E-02,-1.78E-02
7.00E+00,2.02E+00,1253,8.43E-01,-2.80E-02,-1.75E-02
7.00E+00,2.04E+00,1167,8.42E-01,-2.82E-02,-1.79E-02
7.00E+00,2.07E+00,1177,8.32E-01,-2.60E-02,-1.69E-02
7.00E+00,2.09E+00,1139,8.31E-01,-2.64E-02,-1.75E-02
7.00E+00,2.12E+00,1161,8.26E-01,-2.84E-02,-1.73E-02
7.00E+00,2.14E+00,1079,8.17E-01,-2.64E-02,-2.01E-02
7.00E+00,2.16E+00,1127,8.15E-01,-2.60E-02,-1.90E-02
7.00E+00,2.19E+00,1219,8.12E-01,-2.23E-02,-1.55E-02
7.00E+00,2.21E+00,1120,8.07E-01,-2.14E-02,-1.79E-02
7.00E+00,2.24E+00,1150,8.00E-01,-2.29E-02,-1.95E-02
7.00E+00,2.26E+00,1129,7.94E-01,-2.09E-02,-1.61E-02
7.00E+00,2.29E+00,1125,7.85E-01,-2.12E-02,-1.75E-02
7.00E+00,2.31E+00,1073,7.80E-01,-2.00E-02,-1.60E-02
7.00E+00,2.33E+00,1071,7.77E-01,-1.92E-02,-1.96E-02
7.00E+00,2.36E+00,1089,7.69E-01,-2.14E-02,-1.80E-02
7.00E+00,2.38E+00,957,7.57E-01,-1.95E-02,-1.90E-02
7.00E+00,2.41E+00,977,7.51E-01,-1.74E-02,-1.68E-02
7.00E+00,2.43E+00,954,7.48E-01,-1.45E-02,-1.82E-02
7.00E+00,2.46E+00,919,7.32E-01,-2.01E-02,-1.76E-02
7.00E+00,2.48E+00,989,7.26E-01,-1.68E-02,-1.89E-02
7.00E+00,2.51E+00,905,7.23E-01,-1.50E-02,-2.19E-02
7.00E+00,2.53E+00,818,7.13E-01,-1.27E-02,-1.83E-02
7.00E+00,2.56E+00,836,7.04E-01,-1.04E-02,-1.90E-02
7.00E+00,2.58E+00,797,6.98E-01,-1.19E-02,-1.76E-02
7.00E+00,2.60E+00,777,6.80E-01,-1.31E-02,-1.55E-02
7.00E+00,2.63E+00,803,6.68E-01,-1.49E-02,-1.78E-02
7.00E+00,2.65E+00,747,6.51E-01,-1.03E-02,-1.47E-02
7.00E+00,2.68E+00,741,6.40E-01,-9.01E-03,-1.22E-02
7.00E+00,2.70E+00,699,6.35E-01,-5.20E-03,-1.26E-02
7.00E+00,2.73E+00,650,6.14E-01,-9.47E-03,-1.34E-02
7.00E+00,2.75E+00,623,5.98E-01,-7.51E-03,-1.83E-02
7.00E+00,2.77E+00,561,5.86E-01,-5.93E-03,-2.13E-02
7.00E+00,2.80E+00,570,5.71E-01,-4.04E-03,-1.81E-02
7.00E+00,2.82E+00,587,5.46E-01,-3.90E-03,-1.86E-02
7.00E+00,2.85E+00,602,5.31E-01,6.85E-04,-1.47E-02
7.00E+00,2.87E+00,603,4.99E-01,-2.21E-03,-1.63E-02
7.00E+00,2.90E+00,570,4.50E-01,-4.03E-03,-1.80E-02
7.00E+00,2.92E+00,548,3.87E-01,-6.52E-04,-2.22E-02
7.00E+00,2.95E+00,549,2.63E-01,8.88E-05,-1.13E-02
7.00E+00,2.96E+00,219,1.02E-01,-7.40E-04,-4.29E-04
8.02E+00,2.12E-02,36,2.41E-02,-9.92E-04,-1.76E-02
8.02E+00,3.78E-02,245,6.91E-02,7.72E-04,-4.88E-03
8.02E+00,5.96E-02,274,1.25E-01,-5.58E-04,3.74E-03
8.02E+00,8.55E-02,263,1.32E-01,-1.74E-03,-2.67E-02
8.02E+00,1.10E-01,268,1.74E-01,-7.17E-03,-1.90E-02
8.02E+00,1.34E-01,284,1.67E-01,-9.91E-03,-2.30E-02
8.02E+00,1.59E-01,267,1.73E-01,-1.13E-02,-3.05E-02
8.02E+00,1.84E-01,279,1.87E-01,-8.92E-03,-4.63E-02
8.02E+00,2.08E-01,297,1.96E-01,-1.25E-02,-2.64E-02
8.02E+00,2.32E-01,261,1.87E-01,-6.58E-03,-3.46E-02
8.02E+00,2.58E-01,263,2.05E-01,-8.81E-03,-2.55E-02
8.02E+00,2.81E-01,319,2.04E-01,-2.52E-03,-1.35E-02
8.02E+00,3.05E-01,279,2.34E-01,-2.49E-02,-2.73E-02
8.02E+00,3.30E-01,302,2.24E-01,-2.59E-02,-2.02E-02
8.02E+00,3.54E-01,287,2.52E-01,-2.58E-02,-2.67E-02
8.02E+00,3.79E-01,275,2.46E-01,-2.29E-02,-2.44E-02
8.02E+00,4.04E-01,292,2.68E-01,-1.46E-02,-1.80E-02
8.02E+00,4.28E-01,282,2.79E-01,-2.51E-02,-1.97E-02
8.02E+00,4.52E-01,294,2.81E-01,-3.51E-02,-2.68E-02
8.02E+00,4.76E-01,276,3.18E-01,-4.89E-02,-2.69E-02
8.02E+00,5.01E-01,288,2.99E-01,-2.85E-02,-2.53E-02
8.02E+00,5.25E-01,282,3.25E-01,-3.28E-02,-1.28E-02
8.02E+00,5.50E-01,273,3.14E-01,-3.19E-02,-2.01E-02
8.02E+00,5.74E-01,295,3.36E-01,-3.29E-02,-2.85E-02
8.02E+00,5.99E-01,269,3.68E-01,-3.60E-02,-2.47E-02
8.02E+00,6.23E-01,294,3.50E-01,-2.96E-02,-6.06E-03
8.02E+00,6.48E-01,291,3.88E-01,-4.90E-02,7.60E-03
8.02E+00,6.72E-01,270,3.94E-01,-4.12E-02,-1.39E-02
8.02E+00,6.98E-01,292,4.04E-01,-4.15E-02,-1.44E-02
8.02E+00,7.21E-01,305,4.24E-01,-4.39E-02,-1.42E-02
8.02E+00,7.45E-01,324,4.31E-01,-3.89E-02,-1.81E-02
8.02E+00,7.69E-01,269,4.36E-01,-3.03E-02,-2.89E-02
8.02E+00,7.95E-01,331,4.45E-01,-3.53E-02,-1.76E-02
8.02E+00,8.20E-01,342,4.50E-01,-4.54E-02,-1.06E-02
8.02E+00,8.43E-01,318,4.74E-01,-4.56E-02,-9.89E-03
8.02E+00,8.68E-01,284,5.08E-01,-3.88E-02,-1.79E-02
8.02E+00,8.93E-01,287,5.35E-01,-4.62E-02,-1.53E-02
8.02E+00,9.18E-01,338,5.31E-01,-4.29E-02,-1.88E-02
8.02E+00,9.41E-01,350,5.38E-01,-4.34E-02,-1.02E-02
8.02E+00,9.65E-01,330,5.43E-01,-3.71E-02,-2.30E-02
8.02E+00,9.90E-01,326,5.82E-01,-4.73E-02,-1.61E-02
8.02E+00,1.01E+00,317,5.93E-01,-4.90E-02,1.07E-03
8.02E+00,1.04E+00,359,5.96E-01,-3.48E-02,-1.77E-02
8.02E+00,1.06E+00,337,6.08E-01,-3.83E-02,-1.87E-02
8.02E+00,1.09E+00,369,6.18E-01,-4.14E-02,-1.45E-02
8.02E+00,1.11E+00,324,6.32E-01,-3.86E-02,-8.76E-03
8.02E+00,1.14E+00,374,6.57E-01,-5.31E-02,-1.78E-02
8.02E+00,1.16E+00,331,6.65E-01,-4.24E-02,-2.26E-02
8.02E+00,1.19E+00,389,6.79E-01,-4.25E-02,-1.64E-02
8.02E+00,1.21E+00,364,6.91E-01,-3.74E-02,-2.75E-02
8.02E+00,1.23E+00,373,7.08E-01,-4.44E-02,-1.46E-02
8.02E+00,1.26E+00,402,7.20E-01,-3.71E-02,-1.70E-02
8.02E+00,1.28E+00,397,7.26E-01,-3.68E-02,-2.50E-02
8.02E+00,1.31E+00,403,7.47E-01,-3.51E-02,-2.24E-02
8.02E+00,1.33E+00,417,7.50E-01,-3.75E-02,-1.30E-02
8.02E+00,1.36E+00,418,7.66E-01,-3.79E-02,-1.81E-02
8.02E+00,1.38E+00,438,7.75E-01,-4.08E-02,-1.57E-02
8.02E+00,1.41E+00,445,7.73E-01,-3.49E-02,-1.80E-02
8.02E+00,1.43E+00,456,7.88E-01,-4.21E-02,-1.53E-02
8.02E+00,1.46E+00,453,8.00E-01,-3.41E-02,-1.66E-02
8.02E+00,1.48E+00,387,8.04E-01,-3.83E-02,-1.98E-02
8.02E+00,1.50E+00,475,8.05E-01,-3.13E-02,-1.89E-02
8.02E+00,1.53E+00,435,8.12E-01,-3.35E-02,-1.62E-02
8.02E+00,1.55E+00,462,8.22E-01,-3.53E-02,-2.05E-02
8.02E+00,1.58E+00,482,8.21E-01,-2.89E-02,-1.66E-02
8.02E+00,1.60E+00,520,8.22E-01,-3.03E-02,-1.88E-02
8.02E+00,1.63E+00,498,8.30E-01,-3.08E-02,-1.43E-02
8.02E+00,1.65E+00,519,8.32E-01,-3.08E-02,-1.68E-02
8.02E+00,1.67E+00,490,8.35E-01,-2.81E-02,-1.47E-02
8.02E+00,1.70E+00,538,8.34E-01,-2.79E-02,-1.82E-02
8.02E+00,1.72E+00,507,8.33E-01,-2.48E-02,-2.24E-02
8.02E+00,1.75E+00,563,8.44E-01,-2.81E-02,-1.59E-02
8.02E+00,1.77E+00,553,8.35E-01,-2.51E-02,-1.65E-02
8.02E+00,1.80E+00,576,8.38E-01,-2.70E-02,-2.00E-02
8.02E+00,1.82E+00,544,8.40E-01,-2.38E-02,-2.03E-02
8.02E+00,1.85E+00,558,8.37E-01,-2.65E-02,-1.75E-02
8.02E+00,1.87E+00,549,8.33E-01,-2.24E-02,-1.91E-02
8.02E+00,1.89E+00,585,8.35E-01,-2.28E-02,-1.86E-02
8.02E+00,1.92E+00,570,8.33E-01,-2.15E-02,-1.66E-02
8.02E+00,1.94E+00,599,8.28E-01,-1.92E-02,-1.90E-02
8.02E+00,1.97E+00,630,8.19E-01,-2.59E-02,-1.82E-02
8.02E+00,1.99E+00,574,8.22E-01,-2.08E-02,-1.79E-02
8.02E+00,2.02E+00,614,8.12E-01,-2.31E-02,-1.47E-02
8.02E+00,2.04E+00,626,8.11E-01,-1.77E-02,-1.80E-02
8.02E+00,2.07E+00,601,8.08E-01,-1.89E-02,-1.63E-02
8.02E+00,2.09E+00,631,8.02E-01,-1.78E-02,-1.80E-02
8.02E+00,2.12E+00,626,7.94E-01,-2.02E-02,-1.75E-02
8.02E+00,2.14E+00,656,7.91E-01,-1.70E-02,-2.03E-02
8.02E+00,2.16E+00,608,7.85E-01,-1.91E-02,-1.81E-02
8.02E+00,2.19E+00,604,7.84E-01,-1.68E-02,-1.74E-02
8.02E+00,2.21E+00,592,7.83E-01,-1.52E-02,-1.96E-02
8.02E+00,2.24E+00,598,7.76E-01,-1.67E-02,-1.81E-02
8.02E+00,2.26E+00,540,7.62E-01,-1.75E-02,-1.78E-02
8.02E+00,2.29E+00,576,7.54E-01,-1.44E-02,-2.03E-02
8.02E+00,2.31E+00,577,7.55E-01,-9.59E-03,-1.68E-02
8.02E+00,2.33E+00,566,7.51E-01,-1.20E-02,-1.51E-02
8.02E+00,2.36E+00,588,7.37E-01,-1.36E-02,-1.57E-02
8.02E+00,2.38E+00,585,7.31E-01,-1.69E-02,-1.73E-02
8.02E+00,2.41E+00,529,7.19E-01,-1.64E-02,-1.41E-02
8.02E+00,2.43E+00,541,7.15E-01,-1.30E-02,-1.71E-02
8.02E+00,2.46E+00,560,7.08E-01,-6.37E-03,-1.58E-02
8.02E+00,2.48E+00,508,6.93E-01,-7.00E-03,-1.84E-02
8.02E+00,2.51E+00,476,6.86E-01,-1.19E-02,-1.92E-02
8.02E+00,2.53E+00,506,6.75E-01,-1.12E-02,-2.28E-02
8.02E+00,2.55E+00,458,6.70E-01,-3.91E-03,-1.48E-02
8.02E+00,2.58E+00,484,6.63E-01,-7.26E-03,-1.34E-02
8.02E+00,2.60E+00,484,6.49E-01,-9.37E-03,-1.37E-02
8.02E+00,2.63E+00,443,6.40E-01,-6.73E-03,-1.12E-02
8.02E+00,2.65E+00,504,6.27E-01,-3.23E-03,-1.49E-02
8.02E+00,2.68E+00,474,6.07E-01,-8.02E-03,-1.76E-02
8.02E+00,2.70E+00,459,6.09E-01,3.79E-03,-2.36E-02
8.02E+00,2.73E+00,487,5.85E-01,-3.33E-03,-1.25E-02
8.02E+00,2.75E+00,534,5.61E-01,-3.10E-03,-2.12E-02
8.02E+00,2.77E+00,490,5.62E-01,-1.06E-03,-2.17E-02
8.02E+00,2.80E+00,475,5.38E-01,-7.03E-03,-1.72E-02
8.02E+00,2.82E+00,466,5.09E-01,-4.29E-03,-2.07E-02
8.02E+00,2.85E+00,435,4.98E-01,-3.66E-03,-2.16E-02
8.02E+00,2.87E+00,523,4.66E-01,-3.26E-03,-2.16E-02
8.02E+00,2.90E+00,513,4.38E-01,-1.61E-03,-1.75E-02
8.02E+00,2.92E+00,519,3.75E-01,-2.50E-04,-1.18E-02
8.02E+00,2.95E+00,490,2.59E-01,8.64E-04,-1.10E-02
8.02E+00,2.96E+00,251,1.18E-01,-3.80E-04,-4.38E-03
9.00E+00,1.83E-02,108,3.91E-02,1.99E-03,-1.05E-02
9.00E+00,3.68E-02,235,7.77E-02,3.88E-03,-9.58E-03
9.00E+00,6.07E-02,221,1.42E-01,-3.42E-03,-2.27E-02
9.00E+00,8.54E-02,186,1.72E-01,-1.18E-02,-1.16E-02
9.00E+00,1.10E-01,204,1.89E-01,-4.78E-03,-3.01E-02
9.00E+00,1.34E-01,182,1.89E-01,-4.47E-03,-1.04E-02
9.00E+00,1.59E-01,194,2.08E-01,-6.89E-03,-3.35E-02
9.00E+00,1.84E-01,191,2.00E-01,2.75E-03,-1.53E-02
9.00E+00,2.08E-01,171,2.28E-01,2.56E-03,-2.69E-02
9.00E+00,2.33E-01,177,2.36E-01,2.92E-03,-2.76E-02
9.00E+00,2.56E-01,184,2.49E-01,-1.59E-02,-1.74E-02
9.00E+00,2.80E-01,162,2.38E-01,1.28E-03,-2.99E-02
9.00E+00,3.06E-01,212,2.61E-01,7.25E-03,-1.97E-02
9.00E+00,3.29E-01,205,2.76E-01,-2.21E-02,-6.02E-03
9.00E+00,3.55E-01,201,2.82E-01,-2.90E-02,-3.75E-02
9.00E+00,3.79E-01,206,2.97E-01,-2.24E-02,-2.58E-02
9.00E+00,4.03E-01,218,3.06E-01,-1.45E-02,-3.31E-02
9.00E+00,4.27E-01,219,2.92E-01,-2.00E-02,-2.06E-02
9.00E+00,4.52E-01,210,3.23E-01,-2.68E-02,-2.75E-02
9.00E+00,4.77E-01,219,3.39E-01,-3.84E-02,-2.35E-02
9.00E+00,5.03E-01,238,3.34E-01,-3.53E-02,-1.83E-02
9.00E+00,5.25E-01,237,3.41E-01,-4.15E-02,-1.99E-02
9.00E+00,5.51E-01,259,3.60E-01,-2.70E-02,-1.26E-02
9.00E+00,5.74E-01,245,3.61E-01,-3.09E-02,-2.42E-02
9.00E+00,5.98E-01,263,3.87E-01,-4.21E-02,5.87E-03
9.00E+00,6.24E-01,251,3.85E-01,-3.85E-02,-1.28E-02
9.00E+00,6.48E-01,256,4.07E-01,-3.66E-02,-1.52E-02
9.00E+00,6.72E-01,271,4.03E-01,-2.68E-02,-7.55E-03
9.00E+00,6.97E-01,260,4.09E-01,-2.90E-02,-5.56E-03
9.00E+00,7.21E-01,257,4.39E-01,-2.94E-02,-2.41E-02
9.00E+00,7.46E-01,235,4.55E-01,-4.57E-02,-2.67E-02
9.00E+00,7.70E-01,269,4.51E-01,-4.68E-02,-1.48E-02
9.00E+00,7.95E-01,249,4.64E-01,-3.78E-02,-5.50E-03
9.00E+00,8.20E-01,278,4.98E-01,-4.05E-02,-2.08E-02
9.00E+00,8.44E-01,258,5.13E-01,-4.16E-02,-2.03E-02
9.00E+00,8.68E-01,284,5.15E-01,-3.37E-02,-1.53E-04
9.00E+00,8.93E-01,292,5.21E-01,-4.46E-02,-1.56E-02
9.00E+00,9.16E-01,275,5.40E-01,-3.08E-02,-1.48E-02
9.00E+00,9.41E-01,320,5.55E-01,-3.45E-02,-1.11E-02
9.00E+00,9.65E-01,304,5.76E-01,-3.85E-02,-9.01E-03
9.00E+00,9.91E-01,336,5.91E-01,-4.29E-02,-2.29E-03
9.00E+00,1.01E+00,302,5.95E-01,-4.40E-02,-1.69E-02
9.00E+00,1.04E+00,289,6.09E-01,-2.84E-02,-1.85E-02
9.00E+00,1.06E+00,333,6.09E-01,-3.77E-02,-1.24E-02
9.00E+00,1.09E+00,333,6.37E-01,-4.57E-02,-1.64E-02
9.00E+00,1.11E+00,313,6.48E-01,-3.29E-02,-1.51E-02
9.00E+00,1.14E+00,335,6.55E-01,-3.58E-02,-9.77E-03
9.00E+00,1.16E+00,325,6.61E-01,-3.19E-02,-1.51E-02
9.00E+00,1.19E+00,349,6.71E-01,-2.75E-02,-1.63E-02
9.00E+00,1.21E+00,330,7.01E-01,-4.27E-02,-1.81E-02
9.00E+00,1.23E+00,382,7.03E-01,-3.54E-02,-1.52E-02
9.00E+00,1.26E+00,345,7.07E-01,-3.31E-02,-1.23E-02
9.00E+00,1.28E+00,387,7.18E-01,-2.97E-02,-9.56E-03
9.00E+00,1.31E+00,317,7.34E-01,-3.24E-02,-1.57E-02
9.00E+00,1.33E+00,348,7.37E-01,-2.95E-02,-1.06E-02
9.00E+00,1.36E+00,327,7.52E-01,-3.56E-02,-1.43E-02
9.00E+00,1.38E+00,371,7.65E-01,-3.62E-02,-2.04E-02
9.00E+00,1.40E+00,358,7.68E-01,-2.37E-02,-1.16E-02
9.00E+00,1.43E+00,358,7.77E-01,-2.94E-02,-1.56E-02
9.00E+00,1.46E+00,287,7.90E-01,-3.12E-02,-1.24E-02
9.00E+00,1.48E+00,332,7.96E-01,-2.00E-02,-1.58E-02
9.00E+00,1.50E+00,342,8.01E-01,-3.12E-02,-1.63E-02
9.00E+00,1.53E+00,336,7.99E-01,-2.34E-02,-1.66E-02
9.00E+00,1.55E+00,328,8.09E-01,-2.16E-02,-1.86E-02
9.00E+00,1.58E+00,310,8.10E-01,-2.63E-02,-9.86E-03
9.00E+00,1.60E+00,326,8.11E-01,-2.15E-02,-1.78E-02
9.00E+00,1.63E+00,292,8.14E-01,-1.76E-02,-1.42E-02
9.00E+00,1.65E+00,324,8.18E-01,-2.26E-02,-1.24E-02
9.00E+00,1.67E+00,321,8.19E-01,-1.69E-02,-1.69E-02
9.00E+00,1.70E+00,275,8.23E-01,-2.07E-02,-1.64E-02
9.00E+00,1.72E+00,329,8.21E-01,-2.24E-02,-1.67E-02
9.00E+00,1.75E+00,303,8.25E-01,-1.79E-02,-1.69E-02
9.00E+00,1.77E+00,278,8.22E-01,-1.99E-02,-2.11E-02
9.00E+00,1.80E+00,283,8.22E-01,-1.97E-02,-1.56E-02
9.00E+00,1.82E+00,312,8.23E-01,-2.27E-02,-1.90E-02
9.00E+00,1.85E+00,311,8.16E-01,-2.40E-02,-1.83E-02
9.00E+00,1.87E+00,308,8.14E-01,-1.57E-02,-1.63E-02
9.00E+00,1.90E+00,329,8.19E-01,-1.48E-02,-1.48E-02
9.00E+00,1.92E+00,304,8.12E-01,-1.95E-02,-1.63E-02
9.00E+00,1.94E+00,303,8.11E-01,-1.60E-02,-1.84E-02
9.00E+00,1.97E+00,302,8.08E-01,-1.94E-02,-1.93E-02
9.00E+00,1.99E+00,290,8.00E-01,-1.78E-02,-1.69E-02
9.00E+00,2.02E+00,296,7.99E-01,-1.46E-02,-1.59E-02
9.00E+00,2.04E+00,262,7.91E-01,-1.45E-02,-8.92E-03
9.00E+00,2.07E+00,288,7.91E-01,-1.02E-02,-1.46E-02
9.00E+00,2.09E+00,285,7.89E-01,-1.38E-02,-1.51E-02
9.00E+00,2.12E+00,292,7.83E-01,-1.06E-02,-1.71E-02
9.00E+00,2.14E+00,294,7.71E-01,-1.08E-02,-1.51E-02
9.00E+00,2.16E+00,330,7.75E-01,-1.37E-02,-1.45E-02
9.00E+00,2.19E+00,331,7.69E-01,-9.48E-03,-1.24E-02
9.00E+00,2.21E+00,266,7.61E-01,-6.83E-03,-1.14E-02
9.00E+00,2.24E+00,328,7.62E-01,-9.55E-03,-1.72E-02
9.00E+00,2.26E+00,296,7.58E-01,-8.35E-03,-1.86E-02
9.00E+00,2.29E+00,364,7.44E-01,-1.09E-02,-1.16E-02
9.00E+00,2.31E+00,324,7.34E-01,-1.26E-02,-1.41E-02
9.00E+00,2.34E+00,314,7.35E-01,-7.72E-03,-1.64E-02
9.00E+00,2.36E+00,320,7.23E-01,-1.24E-02,-1.33E-02
9.00E+00,2.38E+00,351,7.13E-01,-9.21E-03,-1.21E-02
9.00E+00,2.41E+00,354,7.06E-01,-9.85E-03,-1.49E-02
9.00E+00,2.43E+00,349,6.96E-01,-8.34E-03,-1.88E-02
9.00E+00,2.46E+00,328,6.91E-01,-1.22E-02,-1.45E-02
9.00E+00,2.48E+00,366,6.86E-01,-7.14E-03,-9.83E-03
9.00E+00,2.51E+00,392,6.56E-01,-1.34E-02,-2.06E-02
9.00E+00,2.53E+00,392,6.55E-01,-8.66E-03,-1.61E-02
9.00E+00,2.55E+00,410,6.47E-01,-8.00E-03,-1.20E-02
9.00E+00,2.58E+00,445,6.43E-01,-3.68E-03,-1.86E-02
9.00E+00,2.60E+00,438,6.31E-01,-2.05E-03,-1.44E-02
9.00E+00,2.63E+00,431,6.14E-01,-6.57E-03,-1.65E-02
9.00E+00,2.65E+00,396,5.93E-01,-4.02E-03,-1.26E-02
9.00E+00,2.68E+00,459,5.84E-01,-4.05E-03,-1.55E-02
9.00E+00,2.70E+00,415,5.77E-01,-1.30E-03,-2.04E-02
9.00E+00,2.73E+00,444,5.55E-01,-9.52E-03,-1.71E-02
9.00E+00,2.75E+00,430,5.52E-01,1.17E-03,-1.72E-02
9.00E+00,2.78E+00,466,5.36E-01,-3.70E-03,-2.10E-02
9.00E+00,2.80E+00,463,5.17E-01,-8.10E-03,-9.62E-03
9.00E+00,2.82E+00,479,5.03E-01,-2.99E-03,-1.14E-02
9.00E+00,2.85E+00,501,4.92E-01,3.94E-03,-7.24E-03
9.00E+00,2.87E+00,507,4.67E-01,-3.90E-04,-1.60E-02
9.00E+00,2.90E+00,523,4.19E-01,-4.60E-04,-1.54E-02
9.00E+00,2.92E+00,474,3.70E-01,-1.55E-03,-1.60E-02
9.00E+00,2.95E+00,532,2.48E-01,1.39E-03,-1.31E-02
9.00E+00,2.96E+00,181,1.23E-01,-2.69E-04,-9.55E-03
1.00E+01,1.88E-02,50,5.70E-02,-2.69E-03,-2.64E-02
1.00E+01,3.64E-02,223,1.12E-01,-1.59E-03,-2.89E-02
1.00E+01,6.09E-02,215,1.90E-01,-6.52E-03,-4.07E-02
1.00E+01,8.56E-02,183,2.34E-01,-2.60E-03,-4.09E-02
1.00E+01,1.10E-01,224,2.24E-01,-5.68E-03,-1.63E-02
1.00E+01,1.35E-01,200,2.42E-01,4.15E-04,-1.75E-02
1.00E+01,1.59E-01,230,2.60E-01,-1.15E-02,-4.16E-02
1.00E+01,1.84E-01,232,2.65E-01,-1.65E-02,-4.55E-02
1.00E+01,2.09E-01,275,2.75E-01,-1.63E-02,-3.00E-02
1.00E+01,2.33E-01,297,2.73E-01,-1.01E-02,-3.25E-02
1.00E+01,2.57E-01,291,2.70E-01,-7.81E-04,-3.26E-02
1.00E+01,2.81E-01,326,2.81E-01,-2.06E-02,-3.32E-02
1.00E+01,3.05E-01,346,3.01E-01,-1.33E-02,-3.39E-02
1.00E+01,3.30E-01,349,3.00E-01,-5.58E-03,-2.20E-02
1.00E+01,3.54E-01,359,3.11E-01,-1.55E-02,-4.02E-02
1.00E+01,3.80E-01,422,3.00E-01,-7.44E-03,-3.25E-02
1.00E+01,4.03E-01,413,3.25E-01,-1.40E-02,-3.29E-02
1.00E+01,4.28E-01,458,3.36E-01,-2.17E-02,-2.52E-02
1.00E+01,4.53E-01,448,3.37E-01,-1.12E-02,-1.98E-02
1.00E+01,4.77E-01,470,3.39E-01,-1.50E-02,-2.36E-02
1.00E+01,5.01E-01,520,3.52E-01,-1.08E-02,-1.87E-02
1.00E+01,5.26E-01,500,3.54E-01,-1.07E-02,-2.16E-02
1.00E+01,5.50E-01,506,3.73E-01,-1.27E-02,-1.66E-02
1.00E+01,5.75E-01,513,3.82E-01,-2.01E-02,-3.60E-02
1.00E+01,6.00E-01,568,3.90E-01,-2.29E-02,-2.63E-02
1.00E+01,6.23E-01,504,4.00E-01,-2.67E-02,-1.53E-02
1.00E+01,6.48E-01,520,3.95E-01,-2.40E-02,-1.61E-02
1.00E+01,6.73E-01,571,4.24E-01,-2.12E-02,-1.99E-02
1.00E+01,6.97E-01,519,4.32E-01,-1.57E-02,-2.48E-02
1.00E+01,7.21E-01,584,4.40E-01,-3.01E-02,-2.38E-02
1.00E+01,7.46E-01,602,4.55E-01,-2.70E-02,-1.59E-02
1.00E+01,7.70E-01,575,4.58E-01,-2.01E-02,-2.26E-02
1.00E+01,7.94E-01,633,4.65E-01,-2.86E-02,-1.38E-02
1.00E+01,8.19E-01,569,4.75E-01,-1.32E-02,-2.03E-02
1.00E+01,8.43E-01,572,4.92E-01,-1.92E-02,-1.84E-02
1.00E+01,8.68E-01,595,4.94E-01,-2.08E-02,-1.78E-02
1.00E+01,8.92E-01,633,5.15E-01,-2.52E-02,-1.68E-02
1.00E+01,9.17E-01,619,5.34E-01,-2.77E-02,-8.44E-03
1.00E+01,9.41E-01,678,5.39E-01,-2.14E-02,-1.51E-02
1.00E+01,9.65E-01,627,5.53E-01,-2.82E-02,-1.01E-02
1.00E+01,9.90E-01,674,5.64E-01,-2.36E-02,-1.84E-02
1.00E+01,1.01E+00,654,5.77E-01,-1.67E-02,-1.29E-02
1.00E+01,1.04E+00,744,5.90E-01,-2.59E-02,-2.13E-02
1.00E+01,1.06E+00,677,6.04E-01,-2.99E-02,-1.57E-02
1.00E+01,1.09E+00,729,6.00E-01,-2.12E-02,-1.36E-02
1.00E+01,1.11E+00,796,6.18E-01,-2.32E-02,-6.37E-03
1.00E+01,1.14E+00,777,6.32E-01,-1.83E-02,-1.11E-02
1.00E+01,1.16E+00,744,6.45E-01,-2.18E-02,-1.66E-02
1.00E+01,1.19E+00,842,6.55E-01,-2.26E-02,-1.09E-02
1.00E+01,1.21E+00,847,6.69E-01,-2.12E-02,-6.48E-03
1.00E+01,1.23E+00,872,6.89E-01,-2.43E-02,-1.19E-02
1.00E+01,1.26E+00,844,7.05E-01,-2.38E-02,-2.07E-02
1.00E+01,1.28E+00,870,7.03E-01,-2.95E-02,-1.36E-02
1.00E+01,1.31E+00,860,7.22E-01,-2.31E-02,-1.70E-02
1.00E+01,1.33E+00,851,7.27E-01,-2.17E-02,-1.30E-02
1.00E+01,1.36E+00,851,7.32E-01,-2.25E-02,-1.52E-02
1.00E+01,1.38E+00,829,7.38E-01,-2.29E-02,-1.67E-02
1.00E+01,1.41E+00,871,7.44E-01,-1.89E-02,-1.04E-02
1.00E+01,1.43E+00,742,7.66E-01,-2.47E-02,-2.29E-02
1.00E+01,1.45E+00,857,7.69E-01,-2.28E-02,-1.64E-02
1.00E+01,1.48E+00,814,7.77E-01,-2.13E-02,-1.85E-02
1.00E+01,1.50E+00,848,7.81E-01,-2.07E-02,-1.57E-02
1.00E+01,1.53E+00,865,7.90E-01,-1.73E-02,-1.34E-02
1.00E+01,1.55E+00,861,7.93E-01,-1.83E-02,-1.90E-02
1.00E+01,1.58E+00,799,7.99E-01,-1.87E-02,-1.53E-02
1.00E+01,1.60E+00,855,8.05E-01,-1.70E-02,-1.41E-02
1.00E+01,1.63E+00,852,8.12E-01,-2.02E-02,-1.48E-02
1.00E+01,1.65E+00,875,8.15E-01,-1.76E-02,-1.56E-02
1.00E+01,1.68E+00,845,8.16E-01,-1.79E-02,-1.48E-02
1.00E+01,1.70E+00,908,8.14E-01,-1.55E-02,-1.46E-02
1.00E+01,1.72E+00,884,8.15E-01,-1.68E-02,-1.54E-02
1.00E+01,1.75E+00,863,8.20E-01,-1.48E-02,-1.59E-02
1.00E+01,1.77E+00,907,8.16E-01,-1.61E-02,-1.64E-02
1.00E+01,1.80E+00,850,8.16E-01,-1.35E-02,-1.74E-02
1.00E+01,1.82E+00,981,8.17E-01,-1.67E-02,-1.64E-02
1.00E+01,1.85E+00,903,8.14E-01,-1.42E-02,-1.97E-02
1.00E+01,1.87E+00,954,8.15E-01,-1.34E-02,-1.79E-02
1.00E+01,1.90E+00,949,8.10E-01,-1.11E-02,-1.60E-02
1.00E+01,1.92E+00,864,8.09E-01,-1.22E-02,-1.74E-02
1.00E+01,1.94E+00,883,8.07E-01,-1.37E-02,-1.61E-02
1.00E+01,1.97E+00,970,8.00E-01,-1.24E-02,-1.58E-02
1.00E+01,1.99E+00,939,7.96E-01,-1.16E-02,-1.61E-02
1.00E+01,2.02E+00,905,7.93E-01,-1.30E-02,-1.61E-02
1.00E+01,2.04E+00,943,7.90E-01,-1.11E-02,-1.62E-02
1.00E+01,2.07E+00,893,7.86E-01,-9.20E-03,-1.35E-02
1.00E+01,2.09E+00,874,7.78E-01,-9.46E-03,-1.52E-02
1.00E+01,2.12E+00,942,7.71E-01,-1.13E-02,-1.71E-02
1.00E+01,2.14E+00,828,7.73E-01,-1.02E-02,-1.92E-02
1.00E+01,2.16E+00,902,7.65E-01,-1.08E-02,-1.64E-02
1.00E+01,2.19E+00,911,7.58E-01,-1.08E-02,-1.53E-02
1.00E+01,2.21E+00,858,7.52E-01,-7.91E-03,-1.51E-02
1.00E+01,2.24E+00,834,7.45E-01,-9.80E-03,-1.71E-02
1.00E+01,2.26E+00,813,7.39E-01,-7.78E-03,-1.58E-02
1.00E+01,2.29E+00,814,7.33E-01,-7.16E-03,-1.40E-02
1.00E+01,2.31E+00,864,7.25E-01,-8.79E-03,-1.44E-02
1.00E+01,2.33E+00,792,7.16E-01,-6.46E-03,-1.47E-02
1.00E+01,2.36E+00,788,7.08E-01,-6.18E-03,-1.83E-02
1.00E+01,2.38E+00,799,6.97E-01,-8.77E-03,-1.70E-02
1.00E+01,2.41E+00,715,6.95E-01,-7.93E-03,-1.34E-02
1.00E+01,2.43E+00,707,6.91E-01,-7.96E-03,-2.10E-02
1.00E+01,2.46E+00,741,6.79E-01,-3.53E-03,-1.39E-02
1.00E+01,2.48E+00,738,6.64E-01,-8.31E-03,-1.72E-02
1.00E+01,2.51E+00,616,6.65E-01,-8.15E-03,-1.58E-02
1.00E+01,2.53E+00,713,6.56E-01,-1.48E-03,-1.69E-02
1.00E+01,2.56E+00,602,6.36E-01,-2.25E-03,-1.75E-02
1.00E+01,2.58E+00,594,6.34E-01,-4.45E-03,-1.22E-02
1.00E+01,2.60E+00,529,6.21E-01,-6.74E-03,-1.39E-02
1.00E+01,2.63E+00,592,6.05E-01,-1.80E-03,-1.29E-02
1.00E+01,2.65E+00,587,6.01E-01,-3.53E-03,-1.77E-02
1.00E+01,2.68E+00,521,5.95E-01,-4.31E-03,-1.46E-02
1.00E+01,2.70E+00,503,5.82E-01,-1.66E-03,-1.46E-02
1.00E+01,2.73E+00,487,5.62E-01,-6.88E-03,-1.62E-02
1.00E+01,2.75E+00,519,5.59E-01,3.50E-03,-8.88E-03
1.00E+01,2.77E+00,455,5.39E-01,-9.46E-04,-1.35E-02
1.00E+01,2.80E+00,471,5.30E-01,-1.35E-03,-1.63E-02
1.00E+01,2.82E+00,457,5.06E-01,-6.35E-03,-1.32E-02
1.00E+01,2.85E+00,489,4.88E-01,2.72E-03,-9.04E-03
1.00E+01,2.87E+00,462,4.71E-01,-1.91E-03,-1.30E-02
1.00E+01,2.90E+00,457,4.40E-01,-2.01E-03,-1.38E-02
1.00E+01,2.92E+00,419,3.67E-01,9.46E-04,-1.43E-02
1.00E+01,2.95E+00,419,2.45E-01,-1.03E-03,-1.04E-02
1.00E+01,2.97E+00,136,1.54E-01,-4.60E-04,-1.40E-02
