solid eastWall
  facet normal 1 0 0
    outer loop
       vertex 0.0432 0.036 0
       vertex 0.0432 -0.036 0.06
       vertex 0.0432 -0.036 0
    endloop
  endfacet
  facet normal 1 0 0
    outer loop
       vertex 0.0432 0.036 0.06
       vertex 0.0432 -0.036 0.06
       vertex 0.0432 0.036 0
    endloop
  endfacet
  facet normal 1 0 0
    outer loop
       vertex 0.0432 -0.036 0.06
       vertex 0.0432 0.036 0.06
       vertex 0.0432 0 0.078
    endloop
  endfacet
endsolid eastWall
solid northWall
  facet normal 0 1 0
    outer loop
       vertex 0.0432 0.036 0.06
       vertex -0.0432 0.036 0
       vertex -0.0432 0.036 0.06
    endloop
  endfacet
  facet normal 0 1 0
    outer loop
       vertex -0.0432 0.036 0
       vertex 0.0432 0.036 0.06
       vertex 0.0432 0.036 0
    endloop
  endfacet
endsolid northWall
solid southWall
  facet normal 0 -1 0
    outer loop
       vertex 0.0432 -0.036 0
       vertex -0.0432 -0.036 0.06
       vertex -0.0432 -0.036 0
    endloop
  endfacet
  facet normal 0 -1 0
    outer loop
       vertex -0.0432 -0.036 0.06
       vertex 0.0432 -0.036 0
       vertex 0.0432 -0.036 0.06
    endloop
  endfacet
endsolid southWall
solid westWall
  facet normal -1 0 0
    outer loop
       vertex -0.0432 -0.036 0
       vertex -0.0432 0.036 0.06
       vertex -0.0432 0.036 0
    endloop
  endfacet
  facet normal -1 0 0
    outer loop
       vertex -0.0432 -0.036 0.06
       vertex -0.0432 0.036 0.06
       vertex -0.0432 -0.036 0
    endloop
  endfacet
  facet normal -1 0 0
    outer loop
       vertex -0.0432 0.036 0.06
       vertex -0.0432 -0.036 0.06
       vertex -0.0432 0 0.078
    endloop
  endfacet
endsolid westWall
solid northRoof
  facet normal 0 0.447212 0.894428
    outer loop
       vertex 0.0492 0 0.0800124
       vertex -0.0492 0.042 0.0590125
       vertex -0.0492 0 0.0800124
    endloop
  endfacet
  facet normal 0 0.447212 0.894428
    outer loop
       vertex -0.0492 0.042 0.0590125
       vertex 0.0492 0 0.0800124
       vertex 0.0492 0.042 0.0590125
    endloop
  endfacet
endsolid northRoof
solid southRoof
  facet normal 0 -0.447212 0.894428
    outer loop
       vertex 0.0492 -0.042 0.0590125
       vertex -0.0492 0 0.0800124
       vertex -0.0492 -0.042 0.0590125
    endloop
  endfacet
  facet normal 0 -0.447212 0.894428
    outer loop
       vertex -0.0492 0 0.0800124
       vertex 0.0492 -0.042 0.0590125
       vertex 0.0492 0 0.0800124
    endloop
  endfacet
endsolid southRoof
solid eastRoofEnd
  facet normal 1 0 0
    outer loop
       vertex 0.0492 0.042 0.0590125
       vertex 0.0492 0 0.078
       vertex 0.0492 0.042 0.057
    endloop
  endfacet
  facet normal 1 0 0
    outer loop
       vertex 0.0492 0 0.078
       vertex 0.0492 -0.042 0.0590125
       vertex 0.0492 -0.042 0.057
    endloop
  endfacet
  facet normal 1 0 0
    outer loop
       vertex 0.0492 0 0.078
       vertex 0.0492 0 0.0800124
       vertex 0.0492 -0.042 0.0590125
    endloop
  endfacet
  facet normal 1 0 0
    outer loop
       vertex 0.0492 0 0.078
       vertex 0.0492 0.042 0.0590125
       vertex 0.0492 0 0.0800124
    endloop
  endfacet
endsolid eastRoofEnd
solid northRoofEnd
  facet normal 0 1 0
    outer loop
       vertex 0.0492 0.042 0.0590125
       vertex -0.0492 0.042 0.057
       vertex -0.0492 0.042 0.0590125
    endloop
  endfacet
  facet normal 0 1 0
    outer loop
       vertex -0.0492 0.042 0.057
       vertex 0.0492 0.042 0.0590125
       vertex 0.0492 0.042 0.057
    endloop
  endfacet
endsolid northRoofEnd
solid southRoofEnd
  facet normal 0 -1 0
    outer loop
       vertex 0.0492 -0.042 0.057
       vertex -0.0492 -0.042 0.0590125
       vertex -0.0492 -0.042 0.057
    endloop
  endfacet
  facet normal 0 -1 0
    outer loop
       vertex -0.0492 -0.042 0.0590125
       vertex 0.0492 -0.042 0.057
       vertex 0.0492 -0.042 0.0590125
    endloop
  endfacet
endsolid southRoofEnd
solid westRoofEnd
  facet normal -1 0 -0
    outer loop
       vertex -0.0492 0 0.0800124
       vertex -0.0492 0 0.078
       vertex -0.0492 -0.042 0.0590125
    endloop
  endfacet
  facet normal -1 0 0
    outer loop
       vertex -0.0492 0.042 0.0590125
       vertex -0.0492 0 0.078
       vertex -0.0492 0 0.0800124
    endloop
  endfacet
  facet normal -1 0 0
    outer loop
       vertex -0.0492 0 0.078
       vertex -0.0492 0.042 0.0590125
       vertex -0.0492 0.042 0.057
    endloop
  endfacet
  facet normal -1 0 0
    outer loop
       vertex -0.0492 -0.042 0.0590125
       vertex -0.0492 0 0.078
       vertex -0.0492 -0.042 0.057
    endloop
  endfacet
endsolid westRoofEnd
solid eastUnderEaves
  facet normal 0 -0.447214 -0.894427
    outer loop
       vertex 0.0432 0.036 0.06
       vertex 0.0492 0 0.078
       vertex 0.0432 0 0.078
    endloop
  endfacet
  facet normal 0 -0.447214 -0.894427
    outer loop
       vertex 0.0432 0.036 0.06
       vertex 0.0492 0.042 0.057
       vertex 0.0492 0 0.078
    endloop
  endfacet
  facet normal 0 0.447214 -0.894427
    outer loop
       vertex 0.0492 -0.042 0.057
       vertex 0.0432 -0.036 0.06
       vertex 0.0492 0 0.078
    endloop
  endfacet
  facet normal 0 0.447214 -0.894427
    outer loop
       vertex 0.0492 0 0.078
       vertex 0.0432 -0.036 0.06
       vertex 0.0432 0 0.078
    endloop
  endfacet
endsolid eastUnderEaves
solid northUnderEaves
  facet normal 0 -0.447214 -0.894427
    outer loop
       vertex 0.0432 0.036 0.06
       vertex -0.0492 0.042 0.057
       vertex 0.0492 0.042 0.057
    endloop
  endfacet
  facet normal 0 -0.447214 -0.894427
    outer loop
       vertex -0.0432 0.036 0.06
       vertex -0.0492 0.042 0.057
       vertex 0.0432 0.036 0.06
    endloop
  endfacet
endsolid northUnderEaves
solid southUnderEaves
  facet normal 0 0.447214 -0.894427
    outer loop
       vertex -0.0492 -0.042 0.057
       vertex 0.0432 -0.036 0.06
       vertex 0.0492 -0.042 0.057
    endloop
  endfacet
  facet normal 0 0.447214 -0.894427
    outer loop
       vertex -0.0492 -0.042 0.057
       vertex -0.0432 -0.036 0.06
       vertex 0.0432 -0.036 0.06
    endloop
  endfacet
endsolid southUnderEaves
solid westUnderEaves
  facet normal 0 -0.447214 -0.894427
    outer loop
       vertex -0.0492 0 0.078
       vertex -0.0432 0.036 0.06
       vertex -0.0432 0 0.078
    endloop
  endfacet
  facet normal 0 -0.447214 -0.894427
    outer loop
       vertex -0.0432 0.036 0.06
       vertex -0.0492 0 0.078
       vertex -0.0492 0.042 0.057
    endloop
  endfacet
  facet normal 0 0.447214 -0.894427
    outer loop
       vertex -0.0432 -0.036 0.06
       vertex -0.0492 0 0.078
       vertex -0.0432 0 0.078
    endloop
  endfacet
  facet normal 0 0.447214 -0.894427
    outer loop
       vertex -0.0492 0 0.078
       vertex -0.0432 -0.036 0.06
       vertex -0.0492 -0.042 0.057
    endloop
  endfacet
endsolid westUnderEaves
